Analysis(ttbar_PDF,bottom,MV2c10,FixedCutBEff_60,AntiKt4EMTopoJets){

	meta_data_s (Hadronization, Pythia8EvtGen)
	meta_data_s (OperatingPoint, -999)

	bin(20<pt<30,0<abseta<2.5)
	{
		central_value(0.98,-999)
		meta_data(N_jets total,-999,-999)
		meta_data(N_jets tagged,-999,-999)
		sys(FT_EFF_stat_np_6,1.17%)
		sys(FT_EFF_stat_np_16,0.61%)
		sys(FT_EFF_stat_np_22,0.32%)
		sys(FT_EFF_stat_np_28,0.11%)
		sys(FT_EFF_EG_RESOLUTION_ALL,0.1%)
		sys(FT_EFF_EG_SCALE_ALL,0.17%)
		sys(FT_EFF_JET_21NP_JET_BJES_Response,1.15%)
		sys(FT_EFF_JET_21NP_JET_EffectiveNP_1,2.35%)
		sys(FT_EFF_JET_21NP_JET_EffectiveNP_2,0.44%)
		sys(FT_EFF_JET_21NP_JET_EffectiveNP_3,0.08%)
		sys(FT_EFF_JET_21NP_JET_EffectiveNP_6,0.06%)
		sys(FT_EFF_JET_21NP_JET_EffectiveNP_8restTerm,0.06%)
		sys(FT_EFF_JET_21NP_JET_EtaIntercalibration_Modelling,0.53%)
		sys(FT_EFF_JET_21NP_JET_EtaIntercalibration_NonClosure,0.09%)
		sys(FT_EFF_JET_21NP_JET_EtaIntercalibration_TotalStat,0.31%)
		sys(FT_EFF_JET_21NP_JET_Flavor_Composition,1.26%)
		sys(FT_EFF_JET_21NP_JET_Flavor_Response,0.08%)
		sys(FT_EFF_JET_21NP_JET_Pileup_OffsetMu,0.18%)
		sys(FT_EFF_JET_21NP_JET_Pileup_OffsetNPV,0.38%)
		sys(FT_EFF_JET_21NP_JET_Pileup_PtTerm,0.06%)
		sys(FT_EFF_JET_21NP_JET_Pileup_RhoTopology,3.51%)
		sys(FT_EFF_JET_JER_SINGLE_NP__1up,-0.29%)
		sys(FT_EFF_MUON_ID,0.07%)
		sys(FT_EFF_MUON_MS,0.09%)
		sys(FT_EFF_MUON_SAGITTA_RHO,0.06%)
		sys(FT_EFF_weight_pileup,1.34%)
		sys(FT_EFF_weight_jvt,0.15%)
		sys(FT_EFF_misstagLight_up,-0.44%)
		sys(FT_EFF_FTAG2_ttbar_Sherpa221,0.35%)
		sys(FT_EFF_FTAG2_Zjets_PowPy8,-0.62%)
		sys(FT_EFF_weight_mc_rad,0.94%)
	}
	bin(30<pt<40,0<abseta<2.5)
	{
		central_value(0.99,-999)
		meta_data(N_jets total,-999,-999)
		meta_data(N_jets tagged,-999,-999)
		sys(FT_EFF_stat_np_9,0.81%)
		sys(FT_EFF_stat_np_20,0.38%)
		sys(FT_EFF_stat_np_27,0.19%)
		sys(FT_EFF_stat_np_31,0.06%)
		sys(FT_EFF_EG_RESOLUTION_ALL,0.06%)
		sys(FT_EFF_EG_SCALE_ALL,0.06%)
		sys(FT_EFF_JET_21NP_JET_BJES_Response,0.35%)
		sys(FT_EFF_JET_21NP_JET_EffectiveNP_1,0.5%)
		sys(FT_EFF_JET_21NP_JET_EffectiveNP_2,0.1%)
		sys(FT_EFF_JET_21NP_JET_EffectiveNP_5,0.08%)
		sys(FT_EFF_JET_21NP_JET_EtaIntercalibration_Modelling,0.38%)
		sys(FT_EFF_JET_21NP_JET_EtaIntercalibration_NonClosure,0.08%)
		sys(FT_EFF_JET_21NP_JET_EtaIntercalibration_TotalStat,0.22%)
		sys(FT_EFF_JET_21NP_JET_Flavor_Composition,1.44%)
		sys(FT_EFF_JET_21NP_JET_Flavor_Response,0.24%)
		sys(FT_EFF_JET_21NP_JET_Pileup_OffsetMu,0.07%)
		sys(FT_EFF_JET_21NP_JET_Pileup_OffsetNPV,0.28%)
		sys(FT_EFF_JET_21NP_JET_Pileup_PtTerm,0.1%)
		sys(FT_EFF_JET_21NP_JET_Pileup_RhoTopology,0.75%)
		sys(FT_EFF_JET_JER_SINGLE_NP__1up,0.62%)
		sys(FT_EFF_MUON_MS,0.08%)
		sys(FT_EFF_weight_pileup,0.43%)
		sys(FT_EFF_weight_jvt,0.05%)
		sys(FT_EFF_misstagLight_up,-0.2%)
		sys(FT_EFF_FTAG2_ttbar_Sherpa221,-0.15%)
		sys(FT_EFF_FTAG2_Zjets_PowPy8,-0.73%)
		sys(FT_EFF_weight_mc_rad,0.65%)
	}
	bin(40<pt<60,0<abseta<2.5)
	{
		central_value(0.98,-999)
		meta_data(N_jets total,-999,-999)
		meta_data(N_jets tagged,-999,-999)
		sys(FT_EFF_stat_np_12,0.49%)
		sys(FT_EFF_stat_np_25,0.23%)
		sys(FT_EFF_stat_np_32,0.1%)
		sys(FT_EFF_JET_21NP_JET_EffectiveNP_1,0.12%)
		sys(FT_EFF_JET_21NP_JET_EtaIntercalibration_Modelling,0.15%)
		sys(FT_EFF_JET_21NP_JET_Flavor_Composition,0.77%)
		sys(FT_EFF_JET_21NP_JET_Flavor_Response,0.2%)
		sys(FT_EFF_JET_21NP_JET_Pileup_OffsetMu,0.05%)
		sys(FT_EFF_JET_21NP_JET_Pileup_PtTerm,0.07%)
		sys(FT_EFF_JET_21NP_JET_Pileup_RhoTopology,0.19%)
		sys(FT_EFF_JET_JER_SINGLE_NP__1up,0.29%)
		sys(FT_EFF_weight_pileup,0.06%)
		sys(FT_EFF_misstagLight_up,-0.11%)
		sys(FT_EFF_FTAG2_ttbar_Sherpa221,0.46%)
		sys(FT_EFF_FTAG2_Zjets_PowPy8,-0.25%)
		sys(FT_EFF_weight_mc_rad,0.49%)
	}
	bin(60<pt<85,0<abseta<2.5)
	{
		central_value(1.0,-999)
		meta_data(N_jets total,-999,-999)
		meta_data(N_jets tagged,-999,-999)
		sys(FT_EFF_stat_np_13,0.46%)
		sys(FT_EFF_stat_np_26,0.2%)
		sys(FT_EFF_stat_np_33,0.09%)
		sys(FT_EFF_JET_21NP_JET_BJES_Response,0.11%)
		sys(FT_EFF_JET_21NP_JET_EffectiveNP_2,0.07%)
		sys(FT_EFF_JET_21NP_JET_EtaIntercalibration_TotalStat,0.05%)
		sys(FT_EFF_JET_21NP_JET_Flavor_Composition,0.36%)
		sys(FT_EFF_JET_21NP_JET_Flavor_Response,0.15%)
		sys(FT_EFF_JET_JER_SINGLE_NP__1up,0.17%)
		sys(FT_EFF_MUON_ID,0.05%)
		sys(FT_EFF_MUON_MS,0.06%)
		sys(FT_EFF_weight_pileup,0.08%)
		sys(FT_EFF_misstagLight_up,-0.08%)
		sys(FT_EFF_FTAG2_ttbar_Sherpa221,0.23%)
		sys(FT_EFF_FTAG2_Zjets_PowPy8,-0.24%)
		sys(FT_EFF_weight_mc_rad,0.33%)
	}
	bin(85<pt<110,0<abseta<2.5)
	{
		central_value(0.99,-999)
		meta_data(N_jets total,-999,-999)
		meta_data(N_jets tagged,-999,-999)
		sys(FT_EFF_stat_np_11,0.59%)
		sys(FT_EFF_stat_np_21,0.27%)
		sys(FT_EFF_stat_np_29,0.11%)
		sys(FT_EFF_JET_21NP_JET_BJES_Response,0.1%)
		sys(FT_EFF_JET_21NP_JET_Flavor_Composition,0.31%)
		sys(FT_EFF_JET_21NP_JET_Flavor_Response,0.09%)
		sys(FT_EFF_JET_21NP_JET_Pileup_RhoTopology,0.07%)
		sys(FT_EFF_JET_JER_SINGLE_NP__1up,0.08%)
		sys(FT_EFF_misstagLight_up,-0.06%)
		sys(FT_EFF_FTAG2_ttbar_Sherpa221,0.43%)
		sys(FT_EFF_weight_mc_rad,0.29%)
	}
	bin(110<pt<140,0<abseta<2.5)
	{
		central_value(0.98,-999)
		meta_data(N_jets total,-999,-999)
		meta_data(N_jets tagged,-999,-999)
		sys(FT_EFF_stat_np_8,0.78%)
		sys(FT_EFF_stat_np_17,0.34%)
		sys(FT_EFF_stat_np_24,0.16%)
		sys(FT_EFF_stat_np_30,0.05%)
		sys(FT_EFF_JET_21NP_JET_BJES_Response,0.12%)
		sys(FT_EFF_JET_21NP_JET_EffectiveNP_1,0.07%)
		sys(FT_EFF_JET_21NP_JET_Flavor_Composition,0.19%)
		sys(FT_EFF_JET_21NP_JET_Flavor_Response,0.1%)
		sys(FT_EFF_JET_21NP_JET_Pileup_OffsetNPV,0.06%)
		sys(FT_EFF_JET_21NP_JET_Pileup_PtTerm,0.05%)
		sys(FT_EFF_JET_21NP_JET_Pileup_RhoTopology,0.11%)
		sys(FT_EFF_weight_pileup,0.1%)
		sys(FT_EFF_FTAG2_ttbar_Sherpa221,1.86%)
		sys(FT_EFF_FTAG2_Zjets_PowPy8,-0.12%)
		sys(FT_EFF_weight_mc_rad,0.25%)
	}
	bin(140<pt<175,0<abseta<2.5)
	{
		central_value(0.96,-999)
		meta_data(N_jets total,-999,-999)
		meta_data(N_jets tagged,-999,-999)
		sys(FT_EFF_stat_np_4,1.2%)
		sys(FT_EFF_stat_np_14,0.58%)
		sys(FT_EFF_stat_np_18,0.23%)
		sys(FT_EFF_stat_np_23,0.06%)
		sys(FT_EFF_JET_21NP_JET_BJES_Response,0.07%)
		sys(FT_EFF_JET_21NP_JET_EffectiveNP_1,0.15%)
		sys(FT_EFF_JET_21NP_JET_EffectiveNP_5,0.05%)
		sys(FT_EFF_JET_21NP_JET_EtaIntercalibration_Modelling,0.09%)
		sys(FT_EFF_JET_21NP_JET_Flavor_Composition,0.09%)
		sys(FT_EFF_JET_21NP_JET_Flavor_Response,0.05%)
		sys(FT_EFF_JET_21NP_JET_Pileup_OffsetNPV,0.08%)
		sys(FT_EFF_JET_21NP_JET_Pileup_RhoTopology,0.21%)
		sys(FT_EFF_JET_JER_SINGLE_NP__1up,0.13%)
		sys(FT_EFF_weight_pileup,0.1%)
		sys(FT_EFF_FTAG2_ttbar_Sherpa221,1.55%)
		sys(FT_EFF_FTAG2_Zjets_PowPy8,-0.23%)
		sys(FT_EFF_weight_mc_rad,0.14%)
	}
	bin(175<pt<250,0<abseta<2.5)
	{
		central_value(0.94,-999)
		meta_data(N_jets total,-999,-999)
		meta_data(N_jets tagged,-999,-999)
		sys(FT_EFF_stat_np_3,1.7%)
		sys(FT_EFF_stat_np_10,1.01%)
		sys(FT_EFF_stat_np_15,0.29%)
		sys(FT_EFF_stat_np_19,0.06%)
		sys(FT_EFF_JET_21NP_JET_BJES_Response,0.1%)
		sys(FT_EFF_JET_21NP_JET_EffectiveNP_1,0.1%)
		sys(FT_EFF_JET_21NP_JET_Flavor_Composition,0.19%)
		sys(FT_EFF_JET_21NP_JET_Flavor_Response,0.13%)
		sys(FT_EFF_JET_21NP_JET_Pileup_RhoTopology,0.19%)
		sys(FT_EFF_JET_JER_SINGLE_NP__1up,-0.41%)
		sys(FT_EFF_MUON_MS,0.05%)
		sys(FT_EFF_FTAG2_ttbar_Sherpa221,2.56%)
		sys(FT_EFF_FTAG2_Zjets_PowPy8,-0.19%)
		sys(FT_EFF_weight_mc_rad,0.26%)
	}
	bin(250<pt<600,0<abseta<2.5)
	{
		central_value(0.92,-999)
		meta_data(N_jets total,-999,-999)
		meta_data(N_jets tagged,-999,-999)
		sys(FT_EFF_stat_np_1,4.76%)
		sys(FT_EFF_stat_np_2,2.42%)
		sys(FT_EFF_stat_np_5,1.15%)
		sys(FT_EFF_stat_np_7,0.38%)
		sys(FT_EFF_EG_RESOLUTION_ALL,0.09%)
		sys(FT_EFF_EG_SCALE_ALL,0.06%)
		sys(FT_EFF_JET_21NP_JET_BJES_Response,0.35%)
		sys(FT_EFF_JET_21NP_JET_EffectiveNP_1,0.36%)
		sys(FT_EFF_JET_21NP_JET_EffectiveNP_2,0.21%)
		sys(FT_EFF_JET_21NP_JET_EffectiveNP_3,0.13%)
		sys(FT_EFF_JET_21NP_JET_EffectiveNP_5,0.06%)
		sys(FT_EFF_JET_21NP_JET_EffectiveNP_6,0.05%)
		sys(FT_EFF_JET_21NP_JET_EtaIntercalibration_Modelling,0.1%)
		sys(FT_EFF_JET_21NP_JET_EtaIntercalibration_NonClosure,0.18%)
		sys(FT_EFF_JET_21NP_JET_Flavor_Composition,0.42%)
		sys(FT_EFF_JET_21NP_JET_Flavor_Response,0.24%)
		sys(FT_EFF_JET_21NP_JET_Pileup_OffsetNPV,0.07%)
		sys(FT_EFF_JET_21NP_JET_Pileup_PtTerm,0.14%)
		sys(FT_EFF_JET_21NP_JET_Pileup_RhoTopology,0.17%)
		sys(FT_EFF_JET_JER_SINGLE_NP__1up,-0.1%)
		sys(FT_EFF_weight_pileup,0.23%)
		sys(FT_EFF_misstagLight_up,0.19%)
		sys(FT_EFF_FTAG2_ttbar_Sherpa221,3.84%)
		sys(FT_EFF_FTAG2_Zjets_PowPy8,-0.32%)
		sys(FT_EFF_weight_mc_rad,0.9%)
	}
}
