Analysis(ttbar_PDF,bottom,DL1,HybBEff_77,AntiKt4EMTopoJets){

	meta_data_s (Hadronization, Pythia8EvtGen)
	meta_data_s (OperatingPoint, -999)

	bin(20<pt<30,0<abseta<2.5)
	{
		central_value(0.97,-999)
		meta_data(N_jets total,-999,-999)
		meta_data(N_jets tagged,-999,-999)
		sys(FT_EFF_stat_np_5,1.02%)
		sys(FT_EFF_stat_np_16,0.08%)
		sys(FT_EFF_stat_np_22,0.23%)
		sys(FT_EFF_stat_np_28,0.17%)
		sys(FT_EFF_EG_RESOLUTION_ALL,0.09%)
		sys(FT_EFF_EG_SCALE_ALL,0.17%)
		sys(FT_EFF_JET_21NP_JET_BJES_Response,1.07%)
		sys(FT_EFF_JET_21NP_JET_EffectiveNP_1,1.99%)
		sys(FT_EFF_JET_21NP_JET_EffectiveNP_2,0.28%)
		sys(FT_EFF_JET_21NP_JET_EffectiveNP_5,0.05%)
		sys(FT_EFF_JET_21NP_JET_EffectiveNP_6,0.08%)
		sys(FT_EFF_JET_21NP_JET_EffectiveNP_8restTerm,0.07%)
		sys(FT_EFF_JET_21NP_JET_EtaIntercalibration_Modelling,0.48%)
		sys(FT_EFF_JET_21NP_JET_EtaIntercalibration_NonClosure,0.12%)
		sys(FT_EFF_JET_21NP_JET_EtaIntercalibration_TotalStat,0.33%)
		sys(FT_EFF_JET_21NP_JET_Flavor_Composition,1.07%)
		sys(FT_EFF_JET_21NP_JET_Flavor_Response,0.17%)
		sys(FT_EFF_JET_21NP_JET_Pileup_OffsetMu,0.32%)
		sys(FT_EFF_JET_21NP_JET_Pileup_OffsetNPV,0.59%)
		sys(FT_EFF_JET_21NP_JET_Pileup_PtTerm,0.14%)
		sys(FT_EFF_JET_21NP_JET_Pileup_RhoTopology,2.92%)
		sys(FT_EFF_JET_JER_SINGLE_NP__1up,-0.12%)
		sys(FT_EFF_MUON_ID,0.1%)
		sys(FT_EFF_MUON_MS,0.08%)
		sys(FT_EFF_MUON_SAGITTA_RHO,0.06%)
		sys(FT_EFF_weight_pileup,1.35%)
		sys(FT_EFF_weight_leptonSF_MU_SF_ID_SYST,0.54%)
		sys(FT_EFF_weight_jvt,0.14%)
		sys(FT_EFF_misstagLight_up,-5.96%)
		sys(FT_EFF_FTAG2_ttbar_Sherpa221,0.63%)
		sys(FT_EFF_FTAG2_Zjets_PowPy8,-0.59%)
		sys(FT_EFF_weight_mc_rad,0.88%)
	}
	bin(30<pt<40,0<abseta<2.5)
	{
		central_value(1.0,-999)
		meta_data(N_jets total,-999,-999)
		meta_data(N_jets tagged,-999,-999)
		sys(FT_EFF_stat_np_8,0.66%)
		sys(FT_EFF_stat_np_20,0.11%)
		sys(FT_EFF_stat_np_27,0.12%)
		sys(FT_EFF_stat_np_31,0.13%)
		sys(FT_EFF_EG_RESOLUTION_ALL,0.07%)
		sys(FT_EFF_EG_SCALE_ALL,0.06%)
		sys(FT_EFF_JET_21NP_JET_BJES_Response,0.33%)
		sys(FT_EFF_JET_21NP_JET_EffectiveNP_1,0.49%)
		sys(FT_EFF_JET_21NP_JET_EffectiveNP_2,0.1%)
		sys(FT_EFF_JET_21NP_JET_EffectiveNP_5,0.08%)
		sys(FT_EFF_JET_21NP_JET_EffectiveNP_8restTerm,0.05%)
		sys(FT_EFF_JET_21NP_JET_EtaIntercalibration_Modelling,0.39%)
		sys(FT_EFF_JET_21NP_JET_EtaIntercalibration_NonClosure,0.09%)
		sys(FT_EFF_JET_21NP_JET_EtaIntercalibration_TotalStat,0.21%)
		sys(FT_EFF_JET_21NP_JET_Flavor_Composition,1.4%)
		sys(FT_EFF_JET_21NP_JET_Flavor_Response,0.24%)
		sys(FT_EFF_JET_21NP_JET_Pileup_OffsetMu,0.06%)
		sys(FT_EFF_JET_21NP_JET_Pileup_OffsetNPV,0.26%)
		sys(FT_EFF_JET_21NP_JET_Pileup_PtTerm,0.09%)
		sys(FT_EFF_JET_21NP_JET_Pileup_RhoTopology,0.74%)
		sys(FT_EFF_JET_JER_SINGLE_NP__1up,0.58%)
		sys(FT_EFF_MUON_MS,0.08%)
		sys(FT_EFF_weight_pileup,0.4%)
		sys(FT_EFF_weight_leptonSF_MU_SF_ID_SYST,0.1%)
		sys(FT_EFF_weight_jvt,0.05%)
		sys(FT_EFF_misstagLight_up,-1.11%)
		sys(FT_EFF_FTAG2_ttbar_Sherpa221,-0.25%)
		sys(FT_EFF_FTAG2_Zjets_PowPy8,-0.7%)
		sys(FT_EFF_weight_mc_rad,0.64%)
	}
	bin(40<pt<60,0<abseta<2.5)
	{
		central_value(0.99,-999)
		meta_data(N_jets total,-999,-999)
		meta_data(N_jets tagged,-999,-999)
		sys(FT_EFF_stat_np_12,0.39%)
		sys(FT_EFF_stat_np_25,0.08%)
		sys(FT_EFF_stat_np_32,0.06%)
		sys(FT_EFF_stat_np_35,0.08%)
		sys(FT_EFF_JET_21NP_JET_EffectiveNP_1,0.12%)
		sys(FT_EFF_JET_21NP_JET_EtaIntercalibration_Modelling,0.14%)
		sys(FT_EFF_JET_21NP_JET_Flavor_Composition,0.79%)
		sys(FT_EFF_JET_21NP_JET_Flavor_Response,0.2%)
		sys(FT_EFF_JET_21NP_JET_Pileup_OffsetMu,0.05%)
		sys(FT_EFF_JET_21NP_JET_Pileup_PtTerm,0.07%)
		sys(FT_EFF_JET_21NP_JET_Pileup_RhoTopology,0.18%)
		sys(FT_EFF_JET_JER_SINGLE_NP__1up,0.28%)
		sys(FT_EFF_weight_pileup,0.07%)
		sys(FT_EFF_weight_leptonSF_MU_SF_ID_SYST,0.05%)
		sys(FT_EFF_misstagLight_up,-0.51%)
		sys(FT_EFF_FTAG2_ttbar_Sherpa221,0.47%)
		sys(FT_EFF_FTAG2_Zjets_PowPy8,-0.24%)
		sys(FT_EFF_weight_mc_rad,0.49%)
	}
	bin(60<pt<85,0<abseta<2.5)
	{
		central_value(0.99,-999)
		meta_data(N_jets total,-999,-999)
		meta_data(N_jets tagged,-999,-999)
		sys(FT_EFF_stat_np_13,0.36%)
		sys(FT_EFF_stat_np_26,0.08%)
		sys(FT_EFF_stat_np_33,0.06%)
		sys(FT_EFF_stat_np_36,0.08%)
		sys(FT_EFF_JET_21NP_JET_BJES_Response,0.11%)
		sys(FT_EFF_JET_21NP_JET_EffectiveNP_2,0.07%)
		sys(FT_EFF_JET_21NP_JET_EtaIntercalibration_TotalStat,0.05%)
		sys(FT_EFF_JET_21NP_JET_Flavor_Composition,0.37%)
		sys(FT_EFF_JET_21NP_JET_Flavor_Response,0.15%)
		sys(FT_EFF_JET_JER_SINGLE_NP__1up,0.17%)
		sys(FT_EFF_MUON_ID,0.05%)
		sys(FT_EFF_MUON_MS,0.07%)
		sys(FT_EFF_weight_pileup,0.08%)
		sys(FT_EFF_misstagLight_up,-0.3%)
		sys(FT_EFF_FTAG2_ttbar_Sherpa221,0.21%)
		sys(FT_EFF_FTAG2_Zjets_PowPy8,-0.25%)
		sys(FT_EFF_weight_mc_rad,0.33%)
	}
	bin(85<pt<110,0<abseta<2.5)
	{
		central_value(0.99,-999)
		meta_data(N_jets total,-999,-999)
		meta_data(N_jets tagged,-999,-999)
		sys(FT_EFF_stat_np_10,0.45%)
		sys(FT_EFF_stat_np_21,0.11%)
		sys(FT_EFF_stat_np_29,0.07%)
		sys(FT_EFF_stat_np_34,0.1%)
		sys(FT_EFF_JET_21NP_JET_BJES_Response,0.1%)
		sys(FT_EFF_JET_21NP_JET_Flavor_Composition,0.3%)
		sys(FT_EFF_JET_21NP_JET_Flavor_Response,0.09%)
		sys(FT_EFF_JET_21NP_JET_Pileup_RhoTopology,0.06%)
		sys(FT_EFF_JET_JER_SINGLE_NP__1up,0.07%)
		sys(FT_EFF_misstagLight_up,-0.21%)
		sys(FT_EFF_FTAG2_ttbar_Sherpa221,0.4%)
		sys(FT_EFF_FTAG2_Zjets_PowPy8,-0.05%)
		sys(FT_EFF_weight_mc_rad,0.29%)
	}
	bin(110<pt<140,0<abseta<2.5)
	{
		central_value(0.98,-999)
		meta_data(N_jets total,-999,-999)
		meta_data(N_jets tagged,-999,-999)
		sys(FT_EFF_stat_np_7,0.6%)
		sys(FT_EFF_stat_np_17,0.14%)
		sys(FT_EFF_stat_np_24,0.11%)
		sys(FT_EFF_stat_np_30,0.14%)
		sys(FT_EFF_JET_21NP_JET_BJES_Response,0.11%)
		sys(FT_EFF_JET_21NP_JET_EffectiveNP_1,0.06%)
		sys(FT_EFF_JET_21NP_JET_Flavor_Composition,0.17%)
		sys(FT_EFF_JET_21NP_JET_Flavor_Response,0.11%)
		sys(FT_EFF_JET_21NP_JET_Pileup_OffsetNPV,0.06%)
		sys(FT_EFF_JET_21NP_JET_Pileup_PtTerm,0.06%)
		sys(FT_EFF_JET_21NP_JET_Pileup_RhoTopology,0.09%)
		sys(FT_EFF_weight_pileup,0.08%)
		sys(FT_EFF_misstagLight_up,-0.23%)
		sys(FT_EFF_FTAG2_ttbar_Sherpa221,1.88%)
		sys(FT_EFF_FTAG2_Zjets_PowPy8,-0.11%)
		sys(FT_EFF_weight_mc_rad,0.24%)
	}
	bin(140<pt<175,0<abseta<2.5)
	{
		central_value(0.96,-999)
		meta_data(N_jets total,-999,-999)
		meta_data(N_jets tagged,-999,-999)
		sys(FT_EFF_stat_np_4,0.91%)
		sys(FT_EFF_stat_np_14,0.23%)
		sys(FT_EFF_stat_np_19,0.14%)
		sys(FT_EFF_stat_np_23,0.22%)
		sys(FT_EFF_JET_21NP_JET_BJES_Response,0.07%)
		sys(FT_EFF_JET_21NP_JET_EffectiveNP_1,0.14%)
		sys(FT_EFF_JET_21NP_JET_EtaIntercalibration_Modelling,0.07%)
		sys(FT_EFF_JET_21NP_JET_Flavor_Composition,0.11%)
		sys(FT_EFF_JET_21NP_JET_Pileup_OffsetNPV,0.09%)
		sys(FT_EFF_JET_21NP_JET_Pileup_RhoTopology,0.19%)
		sys(FT_EFF_JET_JER_SINGLE_NP__1up,0.13%)
		sys(FT_EFF_weight_pileup,0.08%)
		sys(FT_EFF_misstagLight_up,-0.12%)
		sys(FT_EFF_FTAG2_ttbar_Sherpa221,1.46%)
		sys(FT_EFF_FTAG2_Zjets_PowPy8,-0.23%)
		sys(FT_EFF_weight_mc_rad,0.14%)
	}
	bin(175<pt<250,0<abseta<2.5)
	{
		central_value(0.97,-999)
		meta_data(N_jets total,-999,-999)
		meta_data(N_jets tagged,-999,-999)
		sys(FT_EFF_stat_np_2,1.23%)
		sys(FT_EFF_stat_np_11,0.31%)
		sys(FT_EFF_stat_np_15,0.22%)
		sys(FT_EFF_stat_np_18,0.29%)
		sys(FT_EFF_JET_21NP_JET_BJES_Response,0.1%)
		sys(FT_EFF_JET_21NP_JET_EffectiveNP_1,0.13%)
		sys(FT_EFF_JET_21NP_JET_Flavor_Composition,0.2%)
		sys(FT_EFF_JET_21NP_JET_Flavor_Response,0.14%)
		sys(FT_EFF_JET_21NP_JET_Pileup_OffsetMu,0.05%)
		sys(FT_EFF_JET_21NP_JET_Pileup_RhoTopology,0.21%)
		sys(FT_EFF_JET_JER_SINGLE_NP__1up,-0.45%)
		sys(FT_EFF_weight_pileup,0.05%)
		sys(FT_EFF_misstagLight_up,-0.12%)
		sys(FT_EFF_FTAG2_ttbar_Sherpa221,2.52%)
		sys(FT_EFF_FTAG2_Zjets_PowPy8,-0.14%)
		sys(FT_EFF_weight_mc_rad,0.28%)
	}
	bin(250<pt<600,0<abseta<2.5)
	{
		central_value(0.94,-999)
		meta_data(N_jets total,-999,-999)
		meta_data(N_jets tagged,-999,-999)
		sys(FT_EFF_stat_np_1,3.27%)
		sys(FT_EFF_stat_np_3,0.75%)
		sys(FT_EFF_stat_np_6,0.7%)
		sys(FT_EFF_stat_np_9,0.73%)
		sys(FT_EFF_EG_RESOLUTION_ALL,0.09%)
		sys(FT_EFF_EG_SCALE_ALL,0.06%)
		sys(FT_EFF_JET_21NP_JET_BJES_Response,0.33%)
		sys(FT_EFF_JET_21NP_JET_EffectiveNP_1,0.37%)
		sys(FT_EFF_JET_21NP_JET_EffectiveNP_2,0.2%)
		sys(FT_EFF_JET_21NP_JET_EffectiveNP_3,0.12%)
		sys(FT_EFF_JET_21NP_JET_EffectiveNP_4,0.12%)
		sys(FT_EFF_JET_21NP_JET_EffectiveNP_5,0.06%)
		sys(FT_EFF_JET_21NP_JET_EffectiveNP_6,0.06%)
		sys(FT_EFF_JET_21NP_JET_EffectiveNP_7,0.06%)
		sys(FT_EFF_JET_21NP_JET_EffectiveNP_8restTerm,0.08%)
		sys(FT_EFF_JET_21NP_JET_EtaIntercalibration_NonClosure,0.15%)
		sys(FT_EFF_JET_21NP_JET_EtaIntercalibration_TotalStat,0.08%)
		sys(FT_EFF_JET_21NP_JET_Flavor_Composition,0.4%)
		sys(FT_EFF_JET_21NP_JET_Flavor_Response,0.22%)
		sys(FT_EFF_JET_21NP_JET_Pileup_OffsetMu,0.14%)
		sys(FT_EFF_JET_21NP_JET_Pileup_OffsetNPV,0.19%)
		sys(FT_EFF_JET_21NP_JET_Pileup_PtTerm,0.15%)
		sys(FT_EFF_JET_21NP_JET_Pileup_RhoTopology,0.19%)
		sys(FT_EFF_JET_JER_SINGLE_NP__1up,-0.07%)
		sys(FT_EFF_weight_pileup,0.2%)
		sys(FT_EFF_weight_leptonSF_MU_SF_ID_SYST,0.08%)
		sys(FT_EFF_misstagLight_up,-0.52%)
		sys(FT_EFF_FTAG2_ttbar_Sherpa221,3.09%)
		sys(FT_EFF_FTAG2_Zjets_PowPy8,-0.35%)
		sys(FT_EFF_weight_mc_rad,0.96%)
	}
}
