Analysis(ttbar_PDF,bottom,DL1,FixedCutBEff_85,AntiKt4EMTopoJets){

	meta_data_s (Hadronization, Pythia8EvtGen)
	meta_data_s (OperatingPoint, -999)

	bin(20<pt<30,0<abseta<2.5)
	{
		central_value(0.98,-999)
		meta_data(N_jets total,-999,-999)
		meta_data(N_jets tagged,-999,-999)
		sys(FT_EFF_stat_np_5,0.86%)
		sys(FT_EFF_stat_np_16,0.36%)
		sys(FT_EFF_stat_np_22,0.16%)
		sys(FT_EFF_EG_RESOLUTION_ALL,0.09%)
		sys(FT_EFF_EG_SCALE_ALL,0.18%)
		sys(FT_EFF_JET_21NP_JET_BJES_Response,1.1%)
		sys(FT_EFF_JET_21NP_JET_EffectiveNP_1,2.25%)
		sys(FT_EFF_JET_21NP_JET_EffectiveNP_2,0.38%)
		sys(FT_EFF_JET_21NP_JET_EffectiveNP_3,0.07%)
		sys(FT_EFF_JET_21NP_JET_EffectiveNP_6,0.06%)
		sys(FT_EFF_JET_21NP_JET_EffectiveNP_8restTerm,0.05%)
		sys(FT_EFF_JET_21NP_JET_EtaIntercalibration_Modelling,0.47%)
		sys(FT_EFF_JET_21NP_JET_EtaIntercalibration_NonClosure,0.05%)
		sys(FT_EFF_JET_21NP_JET_EtaIntercalibration_TotalStat,0.3%)
		sys(FT_EFF_JET_21NP_JET_Flavor_Composition,1.34%)
		sys(FT_EFF_JET_21NP_JET_Flavor_Response,0.05%)
		sys(FT_EFF_JET_21NP_JET_Pileup_OffsetMu,0.14%)
		sys(FT_EFF_JET_21NP_JET_Pileup_OffsetNPV,0.38%)
		sys(FT_EFF_JET_21NP_JET_Pileup_RhoTopology,3.3%)
		sys(FT_EFF_JET_JER_SINGLE_NP__1up,-0.25%)
		sys(FT_EFF_MUON_ID,0.07%)
		sys(FT_EFF_MUON_MS,0.1%)
		sys(FT_EFF_MUON_SAGITTA_RHO,0.06%)
		sys(FT_EFF_weight_pileup,1.28%)
		sys(FT_EFF_weight_leptonSF_MU_SF_ID_SYST,0.65%)
		sys(FT_EFF_weight_jvt,0.15%)
		sys(FT_EFF_misstagLight_up,-7.17%)
		sys(FT_EFF_FTAG2_ttbar_Sherpa221,0.94%)
		sys(FT_EFF_FTAG2_Zjets_PowPy8,-0.48%)
		sys(FT_EFF_weight_mc_rad,0.9%)
	}
	bin(30<pt<40,0<abseta<2.5)
	{
		central_value(1.0,-999)
		meta_data(N_jets total,-999,-999)
		meta_data(N_jets tagged,-999,-999)
		sys(FT_EFF_stat_np_8,0.55%)
		sys(FT_EFF_stat_np_20,0.24%)
		sys(FT_EFF_stat_np_27,0.12%)
		sys(FT_EFF_EG_RESOLUTION_ALL,0.07%)
		sys(FT_EFF_EG_SCALE_ALL,0.06%)
		sys(FT_EFF_JET_21NP_JET_BJES_Response,0.32%)
		sys(FT_EFF_JET_21NP_JET_EffectiveNP_1,0.45%)
		sys(FT_EFF_JET_21NP_JET_EffectiveNP_2,0.12%)
		sys(FT_EFF_JET_21NP_JET_EffectiveNP_5,0.08%)
		sys(FT_EFF_JET_21NP_JET_EtaIntercalibration_Modelling,0.39%)
		sys(FT_EFF_JET_21NP_JET_EtaIntercalibration_NonClosure,0.1%)
		sys(FT_EFF_JET_21NP_JET_EtaIntercalibration_TotalStat,0.21%)
		sys(FT_EFF_JET_21NP_JET_Flavor_Composition,1.33%)
		sys(FT_EFF_JET_21NP_JET_Flavor_Response,0.22%)
		sys(FT_EFF_JET_21NP_JET_Pileup_OffsetMu,0.05%)
		sys(FT_EFF_JET_21NP_JET_Pileup_OffsetNPV,0.23%)
		sys(FT_EFF_JET_21NP_JET_Pileup_PtTerm,0.1%)
		sys(FT_EFF_JET_21NP_JET_Pileup_RhoTopology,0.71%)
		sys(FT_EFF_JET_JER_SINGLE_NP__1up,0.53%)
		sys(FT_EFF_MUON_MS,0.07%)
		sys(FT_EFF_weight_pileup,0.37%)
		sys(FT_EFF_weight_leptonSF_MU_SF_ID_SYST,0.27%)
		sys(FT_EFF_misstagLight_up,-2.77%)
		sys(FT_EFF_FTAG2_ttbar_Sherpa221,-0.1%)
		sys(FT_EFF_FTAG2_Zjets_PowPy8,-0.78%)
		sys(FT_EFF_weight_mc_rad,0.62%)
	}
	bin(40<pt<60,0<abseta<2.5)
	{
		central_value(0.99,-999)
		meta_data(N_jets total,-999,-999)
		meta_data(N_jets tagged,-999,-999)
		sys(FT_EFF_stat_np_12,0.31%)
		sys(FT_EFF_stat_np_25,0.15%)
		sys(FT_EFF_stat_np_32,0.08%)
		sys(FT_EFF_JET_21NP_JET_EffectiveNP_1,0.11%)
		sys(FT_EFF_JET_21NP_JET_EtaIntercalibration_Modelling,0.15%)
		sys(FT_EFF_JET_21NP_JET_Flavor_Composition,0.75%)
		sys(FT_EFF_JET_21NP_JET_Flavor_Response,0.2%)
		sys(FT_EFF_JET_21NP_JET_Pileup_PtTerm,0.07%)
		sys(FT_EFF_JET_21NP_JET_Pileup_RhoTopology,0.16%)
		sys(FT_EFF_JET_JER_SINGLE_NP__1up,0.27%)
		sys(FT_EFF_weight_pileup,0.06%)
		sys(FT_EFF_weight_leptonSF_MU_SF_ID_SYST,0.14%)
		sys(FT_EFF_misstagLight_up,-1.37%)
		sys(FT_EFF_FTAG2_ttbar_Sherpa221,0.43%)
		sys(FT_EFF_FTAG2_Zjets_PowPy8,-0.16%)
		sys(FT_EFF_weight_mc_rad,0.47%)
	}
	bin(60<pt<85,0<abseta<2.5)
	{
		central_value(0.99,-999)
		meta_data(N_jets total,-999,-999)
		meta_data(N_jets tagged,-999,-999)
		sys(FT_EFF_stat_np_13,0.27%)
		sys(FT_EFF_stat_np_26,0.14%)
		sys(FT_EFF_stat_np_33,0.08%)
		sys(FT_EFF_JET_21NP_JET_BJES_Response,0.1%)
		sys(FT_EFF_JET_21NP_JET_EffectiveNP_2,0.07%)
		sys(FT_EFF_JET_21NP_JET_Flavor_Composition,0.35%)
		sys(FT_EFF_JET_21NP_JET_Flavor_Response,0.15%)
		sys(FT_EFF_JET_JER_SINGLE_NP__1up,0.17%)
		sys(FT_EFF_MUON_MS,0.06%)
		sys(FT_EFF_weight_pileup,0.07%)
		sys(FT_EFF_weight_leptonSF_MU_SF_ID_SYST,0.1%)
		sys(FT_EFF_misstagLight_up,-0.83%)
		sys(FT_EFF_FTAG2_ttbar_Sherpa221,0.15%)
		sys(FT_EFF_FTAG2_Zjets_PowPy8,-0.21%)
		sys(FT_EFF_weight_mc_rad,0.31%)
	}
	bin(85<pt<110,0<abseta<2.5)
	{
		central_value(1.0,-999)
		meta_data(N_jets total,-999,-999)
		meta_data(N_jets tagged,-999,-999)
		sys(FT_EFF_stat_np_10,0.33%)
		sys(FT_EFF_stat_np_21,0.19%)
		sys(FT_EFF_stat_np_29,0.11%)
		sys(FT_EFF_JET_21NP_JET_BJES_Response,0.1%)
		sys(FT_EFF_JET_21NP_JET_Flavor_Composition,0.27%)
		sys(FT_EFF_JET_21NP_JET_Flavor_Response,0.08%)
		sys(FT_EFF_JET_21NP_JET_Pileup_RhoTopology,0.07%)
		sys(FT_EFF_JET_JER_SINGLE_NP__1up,0.06%)
		sys(FT_EFF_weight_leptonSF_MU_SF_ID_SYST,0.09%)
		sys(FT_EFF_misstagLight_up,-0.58%)
		sys(FT_EFF_FTAG2_ttbar_Sherpa221,0.24%)
		sys(FT_EFF_FTAG2_Zjets_PowPy8,-0.07%)
		sys(FT_EFF_weight_mc_rad,0.29%)
	}
	bin(110<pt<140,0<abseta<2.5)
	{
		central_value(0.99,-999)
		meta_data(N_jets total,-999,-999)
		meta_data(N_jets tagged,-999,-999)
		sys(FT_EFF_stat_np_7,0.43%)
		sys(FT_EFF_stat_np_17,0.25%)
		sys(FT_EFF_stat_np_24,0.15%)
		sys(FT_EFF_JET_21NP_JET_BJES_Response,0.1%)
		sys(FT_EFF_JET_21NP_JET_EffectiveNP_1,0.07%)
		sys(FT_EFF_JET_21NP_JET_Flavor_Composition,0.17%)
		sys(FT_EFF_JET_21NP_JET_Flavor_Response,0.1%)
		sys(FT_EFF_JET_21NP_JET_Pileup_OffsetNPV,0.07%)
		sys(FT_EFF_JET_21NP_JET_Pileup_PtTerm,0.06%)
		sys(FT_EFF_JET_21NP_JET_Pileup_RhoTopology,0.1%)
		sys(FT_EFF_weight_pileup,0.07%)
		sys(FT_EFF_weight_leptonSF_MU_SF_ID_SYST,0.07%)
		sys(FT_EFF_misstagLight_up,-0.53%)
		sys(FT_EFF_FTAG2_ttbar_Sherpa221,1.85%)
		sys(FT_EFF_FTAG2_Zjets_PowPy8,-0.08%)
		sys(FT_EFF_weight_mc_rad,0.23%)
	}
	bin(140<pt<175,0<abseta<2.5)
	{
		central_value(0.97,-999)
		meta_data(N_jets total,-999,-999)
		meta_data(N_jets tagged,-999,-999)
		sys(FT_EFF_stat_np_4,0.67%)
		sys(FT_EFF_stat_np_14,0.37%)
		sys(FT_EFF_stat_np_19,0.23%)
		sys(FT_EFF_stat_np_23,0.09%)
		sys(FT_EFF_JET_21NP_JET_BJES_Response,0.07%)
		sys(FT_EFF_JET_21NP_JET_EffectiveNP_1,0.12%)
		sys(FT_EFF_JET_21NP_JET_EtaIntercalibration_Modelling,0.07%)
		sys(FT_EFF_JET_21NP_JET_Flavor_Composition,0.11%)
		sys(FT_EFF_JET_21NP_JET_Pileup_OffsetNPV,0.09%)
		sys(FT_EFF_JET_21NP_JET_Pileup_RhoTopology,0.17%)
		sys(FT_EFF_JET_JER_SINGLE_NP__1up,0.13%)
		sys(FT_EFF_weight_pileup,0.08%)
		sys(FT_EFF_weight_leptonSF_MU_SF_ID_SYST,0.09%)
		sys(FT_EFF_misstagLight_up,-0.41%)
		sys(FT_EFF_FTAG2_ttbar_Sherpa221,1.32%)
		sys(FT_EFF_FTAG2_Zjets_PowPy8,-0.21%)
		sys(FT_EFF_weight_mc_rad,0.13%)
	}
	bin(175<pt<250,0<abseta<2.5)
	{
		central_value(0.97,-999)
		meta_data(N_jets total,-999,-999)
		meta_data(N_jets tagged,-999,-999)
		sys(FT_EFF_stat_np_2,0.88%)
		sys(FT_EFF_stat_np_11,0.52%)
		sys(FT_EFF_stat_np_15,0.3%)
		sys(FT_EFF_stat_np_18,0.11%)
		sys(FT_EFF_JET_21NP_JET_BJES_Response,0.1%)
		sys(FT_EFF_JET_21NP_JET_EffectiveNP_1,0.15%)
		sys(FT_EFF_JET_21NP_JET_EtaIntercalibration_Modelling,0.05%)
		sys(FT_EFF_JET_21NP_JET_Flavor_Composition,0.19%)
		sys(FT_EFF_JET_21NP_JET_Flavor_Response,0.13%)
		sys(FT_EFF_JET_21NP_JET_Pileup_RhoTopology,0.23%)
		sys(FT_EFF_JET_JER_SINGLE_NP__1up,-0.44%)
		sys(FT_EFF_MUON_MS,0.07%)
		sys(FT_EFF_weight_leptonSF_MU_SF_ID_SYST,0.08%)
		sys(FT_EFF_misstagLight_up,-0.49%)
		sys(FT_EFF_FTAG2_ttbar_Sherpa221,2.46%)
		sys(FT_EFF_FTAG2_Zjets_PowPy8,-0.18%)
		sys(FT_EFF_weight_mc_rad,0.26%)
	}
	bin(250<pt<600,0<abseta<2.5)
	{
		central_value(0.98,-999)
		meta_data(N_jets total,-999,-999)
		meta_data(N_jets tagged,-999,-999)
		sys(FT_EFF_stat_np_1,2.29%)
		sys(FT_EFF_stat_np_3,1.55%)
		sys(FT_EFF_stat_np_6,0.76%)
		sys(FT_EFF_stat_np_9,0.18%)
		sys(FT_EFF_EG_RESOLUTION_ALL,0.08%)
		sys(FT_EFF_EG_SCALE_ALL,0.06%)
		sys(FT_EFF_JET_21NP_JET_BJES_Response,0.31%)
		sys(FT_EFF_JET_21NP_JET_EffectiveNP_1,0.38%)
		sys(FT_EFF_JET_21NP_JET_EffectiveNP_2,0.19%)
		sys(FT_EFF_JET_21NP_JET_EffectiveNP_3,0.11%)
		sys(FT_EFF_JET_21NP_JET_EffectiveNP_4,0.11%)
		sys(FT_EFF_JET_21NP_JET_EffectiveNP_8restTerm,0.05%)
		sys(FT_EFF_JET_21NP_JET_EtaIntercalibration_NonClosure,0.14%)
		sys(FT_EFF_JET_21NP_JET_EtaIntercalibration_TotalStat,0.06%)
		sys(FT_EFF_JET_21NP_JET_Flavor_Composition,0.3%)
		sys(FT_EFF_JET_21NP_JET_Flavor_Response,0.2%)
		sys(FT_EFF_JET_21NP_JET_Pileup_OffsetMu,0.12%)
		sys(FT_EFF_JET_21NP_JET_Pileup_OffsetNPV,0.18%)
		sys(FT_EFF_JET_21NP_JET_Pileup_PtTerm,0.14%)
		sys(FT_EFF_JET_21NP_JET_Pileup_RhoTopology,0.2%)
		sys(FT_EFF_JET_JER_SINGLE_NP__1up,-0.09%)
		sys(FT_EFF_weight_pileup,0.2%)
		sys(FT_EFF_weight_leptonSF_MU_SF_ID_SYST,0.22%)
		sys(FT_EFF_misstagLight_up,-0.72%)
		sys(FT_EFF_FTAG2_ttbar_Sherpa221,2.67%)
		sys(FT_EFF_FTAG2_Zjets_PowPy8,-0.32%)
		sys(FT_EFF_weight_mc_rad,0.96%)
	}
}
