Analysis(Run2MCcalib,light,DL1mu,FixedCutBEff_70,AntiKt4EMTopoJets){
bin(0<pt<50,0<abseta<2.5)
{ 
   central_value(1.0,0.0255)
   sys(FT_EFF_TRK_SAGITTA_WM,0.0%)
   sys(FT_EFF_JER1up,0.7%)
   sys(FT_EFF_TRK_EFF_LOOSE_PP0,0.0%)
   sys(FT_EFF_TRK_RES_D0_DEAD,0.4%)
   sys(FT_EFF_TRK_RES_Z0_DEAD,0.1%)
   sys(FT_EFF_JET_GroupedNP_21down,1.5%)
   sys(FT_EFF_TRK_BIAS_Z0_WM,1.0%)
   sys(FT_EFF_JET_GroupedNP_31up,0.4%)
   sys(FT_EFF_TRK_EFF_LOOSE_GLOBAL,0.1%)
   sys(FT_EFF_TRK_RES_LOOSE_D0_MEAS,18.4%)
   sys(FT_EFF_TRK_EFF_LOOSE_IBL,0.2%)
   sys(FT_EFF_JET_GroupedNP_11down,6.5%)
   sys(FT_EFF_JET_GroupedNP_21up,1.2%)
   sys(FT_EFF_TRK_EFF_LOOSE_TIDE,0.1%)
   sys(FT_EFF_TRK_RES_LOOSE_Z0_MEAS,17.4%)
   sys(FT_EFF_TRK_FAKE_RATE,2.2%)
   sys(FT_EFF_JET_GroupedNP_11up,4.8%)
   sys(FT_EFF_TRK_EFF_LOOSE_PHYSMODEL,0.1%)
   sys(FT_EFF_JET_GroupedNP_31down,0.4%)
   sys(FT_EFF_TRK_BIAS_D0_WM,0.3%)
   sys(FT_EFF_JET_Angular,1.0%)
} 
bin(50<pt<100,0<abseta<2.5)
{ 
   central_value(1.0,0.0255)
   sys(FT_EFF_TRK_SAGITTA_WM,0.1%)
   sys(FT_EFF_JER1up,0.3%)
   sys(FT_EFF_TRK_EFF_LOOSE_PP0,1.0%)
   sys(FT_EFF_TRK_RES_D0_DEAD,0.6%)
   sys(FT_EFF_TRK_RES_Z0_DEAD,0.5%)
   sys(FT_EFF_JET_GroupedNP_21down,0.3%)
   sys(FT_EFF_TRK_BIAS_Z0_WM,1.9%)
   sys(FT_EFF_JET_GroupedNP_31up,0.3%)
   sys(FT_EFF_TRK_EFF_LOOSE_GLOBAL,0.8%)
   sys(FT_EFF_TRK_RES_LOOSE_D0_MEAS,18.5%)
   sys(FT_EFF_TRK_EFF_LOOSE_IBL,0.9%)
   sys(FT_EFF_JET_GroupedNP_11down,0.4%)
   sys(FT_EFF_JET_GroupedNP_21up,0.3%)
   sys(FT_EFF_TRK_EFF_LOOSE_TIDE,0.4%)
   sys(FT_EFF_TRK_RES_LOOSE_Z0_MEAS,26.0%)
   sys(FT_EFF_TRK_FAKE_RATE,3.6%)
   sys(FT_EFF_JET_GroupedNP_11up,0.2%)
   sys(FT_EFF_TRK_EFF_LOOSE_PHYSMODEL,0.5%)
   sys(FT_EFF_JET_GroupedNP_31down,0.1%)
   sys(FT_EFF_TRK_BIAS_D0_WM,0.5%)
   sys(FT_EFF_JET_Angular,0.2%)
} 
bin(100<pt<150,0<abseta<2.5)
{ 
   central_value(1.0,0.0255)
   sys(FT_EFF_TRK_SAGITTA_WM,0.5%)
   sys(FT_EFF_JER1up,0.7%)
   sys(FT_EFF_TRK_EFF_LOOSE_PP0,0.3%)
   sys(FT_EFF_TRK_RES_D0_DEAD,0.8%)
   sys(FT_EFF_TRK_RES_Z0_DEAD,0.5%)
   sys(FT_EFF_JET_GroupedNP_21down,0.8%)
   sys(FT_EFF_TRK_BIAS_Z0_WM,1.2%)
   sys(FT_EFF_JET_GroupedNP_31up,1.0%)
   sys(FT_EFF_TRK_EFF_LOOSE_GLOBAL,0.1%)
   sys(FT_EFF_TRK_RES_LOOSE_D0_MEAS,12.5%)
   sys(FT_EFF_TRK_EFF_LOOSE_IBL,0.2%)
   sys(FT_EFF_JET_GroupedNP_11down,0.8%)
   sys(FT_EFF_JET_GroupedNP_21up,0.9%)
   sys(FT_EFF_TRK_EFF_LOOSE_TIDE,0.5%)
   sys(FT_EFF_TRK_RES_LOOSE_Z0_MEAS,21.0%)
   sys(FT_EFF_TRK_FAKE_RATE,6.0%)
   sys(FT_EFF_JET_GroupedNP_11up,0.9%)
   sys(FT_EFF_TRK_EFF_LOOSE_PHYSMODEL,0.1%)
   sys(FT_EFF_JET_GroupedNP_31down,0.9%)
   sys(FT_EFF_TRK_BIAS_D0_WM,0.2%)
   sys(FT_EFF_JET_Angular,0.1%)
} 
bin(150<pt<200,0<abseta<2.5)
{ 
   central_value(1.0,0.0255)
   sys(FT_EFF_TRK_SAGITTA_WM,2.7%)
   sys(FT_EFF_JER1up,0.9%)
   sys(FT_EFF_TRK_EFF_LOOSE_PP0,1.6%)
   sys(FT_EFF_TRK_RES_D0_DEAD,0.7%)
   sys(FT_EFF_TRK_RES_Z0_DEAD,0.5%)
   sys(FT_EFF_JET_GroupedNP_21down,0.9%)
   sys(FT_EFF_TRK_BIAS_Z0_WM,3.1%)
   sys(FT_EFF_JET_GroupedNP_31up,1.6%)
   sys(FT_EFF_TRK_EFF_LOOSE_GLOBAL,1.5%)
   sys(FT_EFF_TRK_RES_LOOSE_D0_MEAS,9.3%)
   sys(FT_EFF_TRK_EFF_LOOSE_IBL,1.4%)
   sys(FT_EFF_JET_GroupedNP_11down,1.1%)
   sys(FT_EFF_JET_GroupedNP_21up,1.8%)
   sys(FT_EFF_TRK_EFF_LOOSE_TIDE,0.6%)
   sys(FT_EFF_TRK_RES_LOOSE_Z0_MEAS,19.2%)
   sys(FT_EFF_TRK_FAKE_RATE,3.7%)
   sys(FT_EFF_JET_GroupedNP_11up,1.4%)
   sys(FT_EFF_TRK_EFF_LOOSE_PHYSMODEL,0.8%)
   sys(FT_EFF_JET_GroupedNP_31down,1.4%)
   sys(FT_EFF_TRK_BIAS_D0_WM,0.5%)
   sys(FT_EFF_JET_Angular,1.6%)
} 
bin(200<pt<300,0<abseta<2.5)
{ 
   central_value(1.0,0.0255)
   sys(FT_EFF_TRK_SAGITTA_WM,1.5%)
   sys(FT_EFF_JER1up,0.4%)
   sys(FT_EFF_TRK_EFF_LOOSE_PP0,1.3%)
   sys(FT_EFF_TRK_RES_D0_DEAD,0.2%)
   sys(FT_EFF_TRK_RES_Z0_DEAD,0.6%)
   sys(FT_EFF_JET_GroupedNP_21down,0.1%)
   sys(FT_EFF_TRK_BIAS_Z0_WM,1.7%)
   sys(FT_EFF_JET_GroupedNP_31up,0.4%)
   sys(FT_EFF_TRK_EFF_LOOSE_GLOBAL,1.0%)
   sys(FT_EFF_TRK_RES_LOOSE_D0_MEAS,7.3%)
   sys(FT_EFF_TRK_EFF_LOOSE_IBL,1.3%)
   sys(FT_EFF_JET_GroupedNP_11down,0.6%)
   sys(FT_EFF_JET_GroupedNP_21up,0.3%)
   sys(FT_EFF_TRK_EFF_LOOSE_TIDE,0.6%)
   sys(FT_EFF_TRK_RES_LOOSE_Z0_MEAS,16.3%)
   sys(FT_EFF_TRK_FAKE_RATE,9.5%)
   sys(FT_EFF_JET_GroupedNP_11up,0.2%)
   sys(FT_EFF_TRK_EFF_LOOSE_PHYSMODEL,0.1%)
   sys(FT_EFF_JET_GroupedNP_31down,0.4%)
   sys(FT_EFF_TRK_BIAS_D0_WM,0.8%)
   sys(FT_EFF_JET_Angular,3.0%)
} 
bin(300<pt<500,0<abseta<2.5)
{ 
   central_value(1.0,0.0255)
   sys(FT_EFF_TRK_SAGITTA_WM,2.5%)
   sys(FT_EFF_JER1up,0.3%)
   sys(FT_EFF_TRK_EFF_LOOSE_PP0,2.0%)
   sys(FT_EFF_TRK_RES_D0_DEAD,4.0%)
   sys(FT_EFF_TRK_RES_Z0_DEAD,0.7%)
   sys(FT_EFF_JET_GroupedNP_21down,0.3%)
   sys(FT_EFF_TRK_BIAS_Z0_WM,1.0%)
   sys(FT_EFF_JET_GroupedNP_31up,0.9%)
   sys(FT_EFF_TRK_EFF_LOOSE_GLOBAL,2.8%)
   sys(FT_EFF_TRK_RES_LOOSE_D0_MEAS,9.9%)
   sys(FT_EFF_TRK_EFF_LOOSE_IBL,3.0%)
   sys(FT_EFF_JET_GroupedNP_11down,0.7%)
   sys(FT_EFF_JET_GroupedNP_21up,0.8%)
   sys(FT_EFF_TRK_EFF_LOOSE_TIDE,3.1%)
   sys(FT_EFF_TRK_RES_LOOSE_Z0_MEAS,11.7%)
   sys(FT_EFF_TRK_FAKE_RATE,14.3%)
   sys(FT_EFF_JET_GroupedNP_11up,1.7%)
   sys(FT_EFF_TRK_EFF_LOOSE_PHYSMODEL,0.8%)
   sys(FT_EFF_JET_GroupedNP_31down,0.2%)
   sys(FT_EFF_TRK_BIAS_D0_WM,0.2%)
   sys(FT_EFF_JET_Angular,1.5%)
} 
bin(500<pt<800,0<abseta<2.5)
{ 
   central_value(1.0,0.0255)
   sys(FT_EFF_TRK_SAGITTA_WM,0.2%)
   sys(FT_EFF_JER1up,1.8%)
   sys(FT_EFF_TRK_EFF_LOOSE_PP0,3.7%)
   sys(FT_EFF_TRK_RES_D0_DEAD,13.2%)
   sys(FT_EFF_TRK_RES_Z0_DEAD,8.6%)
   sys(FT_EFF_JET_GroupedNP_21down,4.4%)
   sys(FT_EFF_TRK_BIAS_Z0_WM,9.2%)
   sys(FT_EFF_JET_GroupedNP_31up,5.2%)
   sys(FT_EFF_TRK_EFF_LOOSE_GLOBAL,5.5%)
   sys(FT_EFF_TRK_RES_LOOSE_D0_MEAS,21.5%)
   sys(FT_EFF_TRK_EFF_LOOSE_IBL,4.9%)
   sys(FT_EFF_JET_GroupedNP_11down,4.0%)
   sys(FT_EFF_JET_GroupedNP_21up,5.9%)
   sys(FT_EFF_TRK_EFF_LOOSE_TIDE,3.1%)
   sys(FT_EFF_TRK_RES_LOOSE_Z0_MEAS,21.1%)
   sys(FT_EFF_TRK_FAKE_RATE,5.4%)
   sys(FT_EFF_JET_GroupedNP_11up,2.8%)
   sys(FT_EFF_TRK_EFF_LOOSE_PHYSMODEL,0.2%)
   sys(FT_EFF_JET_GroupedNP_31down,4.6%)
   sys(FT_EFF_TRK_BIAS_D0_WM,7.3%)
   sys(FT_EFF_JET_Angular,11.8%)
} 
bin(800<pt<1200,0<abseta<2.5)
{ 
   central_value(1.0,0.0255)
   sys(FT_EFF_TRK_SAGITTA_WM,3.2%)
   sys(FT_EFF_JER1up,0.2%)
   sys(FT_EFF_TRK_EFF_LOOSE_PP0,13.6%)
   sys(FT_EFF_TRK_RES_D0_DEAD,2.1%)
   sys(FT_EFF_TRK_RES_Z0_DEAD,18.1%)
   sys(FT_EFF_JET_GroupedNP_21down,1.9%)
   sys(FT_EFF_TRK_BIAS_Z0_WM,2.9%)
   sys(FT_EFF_JET_GroupedNP_31up,2.3%)
   sys(FT_EFF_TRK_EFF_LOOSE_GLOBAL,4.4%)
   sys(FT_EFF_TRK_RES_LOOSE_D0_MEAS,4.9%)
   sys(FT_EFF_TRK_EFF_LOOSE_IBL,8.2%)
   sys(FT_EFF_JET_GroupedNP_11down,4.1%)
   sys(FT_EFF_JET_GroupedNP_21up,2.6%)
   sys(FT_EFF_TRK_EFF_LOOSE_TIDE,2.3%)
   sys(FT_EFF_TRK_RES_LOOSE_Z0_MEAS,9.6%)
   sys(FT_EFF_TRK_FAKE_RATE,37.0%)
   sys(FT_EFF_JET_GroupedNP_11up,4.9%)
   sys(FT_EFF_TRK_EFF_LOOSE_PHYSMODEL,7.7%)
   sys(FT_EFF_JET_GroupedNP_31down,6.0%)
   sys(FT_EFF_TRK_BIAS_D0_WM,10.3%)
   sys(FT_EFF_JET_Angular,4.7%)
} 
bin(1200<pt<2000,0<abseta<2.5)
{ 
   central_value(1.0,0.0255)
   sys(FT_EFF_TRK_SAGITTA_WM,15.3%)
   sys(FT_EFF_JER1up,6.4%)
   sys(FT_EFF_TRK_EFF_LOOSE_PP0,7.5%)
   sys(FT_EFF_TRK_RES_D0_DEAD,10.9%)
   sys(FT_EFF_TRK_RES_Z0_DEAD,1.7%)
   sys(FT_EFF_JET_GroupedNP_21down,4.1%)
   sys(FT_EFF_TRK_BIAS_Z0_WM,21.5%)
   sys(FT_EFF_JET_GroupedNP_31up,3.6%)
   sys(FT_EFF_TRK_EFF_LOOSE_GLOBAL,13.6%)
   sys(FT_EFF_TRK_RES_LOOSE_D0_MEAS,6.5%)
   sys(FT_EFF_TRK_EFF_LOOSE_IBL,10.9%)
   sys(FT_EFF_JET_GroupedNP_11down,11.4%)
   sys(FT_EFF_JET_GroupedNP_21up,7.3%)
   sys(FT_EFF_TRK_EFF_LOOSE_TIDE,10.0%)
   sys(FT_EFF_TRK_RES_LOOSE_Z0_MEAS,5.8%)
   sys(FT_EFF_TRK_FAKE_RATE,9.5%)
   sys(FT_EFF_JET_GroupedNP_11up,2.7%)
   sys(FT_EFF_TRK_EFF_LOOSE_PHYSMODEL,4.2%)
   sys(FT_EFF_JET_GroupedNP_31down,2.8%)
   sys(FT_EFF_TRK_BIAS_D0_WM,19.5%)
   sys(FT_EFF_JET_Angular,2.4%)
} 
} 
 
 
 
