Analysis(Run2MCcalib,light,MV2c10mu,FixedCutBEff_77,AntiKt4EMTopoJets){
bin(0<pt<50,0<abseta<2.5)
{ 
   central_value(1.0,0.0255)
   sys(FT_EFF_TRK_SAGITTA_WM,0.1%)
   sys(FT_EFF_JER1up,0.9%)
   sys(FT_EFF_JET_GroupedNP_31up,0.2%)
   sys(FT_EFF_TRK_EFF_LOOSE_PP0,0.1%)
   sys(FT_EFF_TRK_RES_D0_DEAD,0.2%)
   sys(FT_EFF_TRK_RES_Z0_DEAD,0.0%)
   sys(FT_EFF_JET_GroupedNP_21up,1.0%)
   sys(FT_EFF_TRK_EFF_LOOSE_IBL,0.1%)
   sys(FT_EFF_TRK_BIAS_Z0_WM,0.6%)
   sys(FT_EFF_TRK_EFF_LOOSE_GLOBAL,0.1%)
   sys(FT_EFF_TRK_RES_LOOSE_D0_MEAS,17.7%)
   sys(FT_EFF_JET_GroupedNP_11down,5.3%)
   sys(FT_EFF_JET_GroupedNP_21down,1.2%)
   sys(FT_EFF_TRK_EFF_LOOSE_TIDE,0.1%)
   sys(FT_EFF_TRK_RES_LOOSE_Z0_MEAS,15.9%)
   sys(FT_EFF_TRK_FAKE_RATE,2.1%)
   sys(FT_EFF_JET_GroupedNP_11up,4.4%)
   sys(FT_EFF_TRK_EFF_LOOSE_PHYSMODEL,0.1%)
   sys(FT_EFF_JET_GroupedNP_31down,0.1%)
   sys(FT_EFF_TRK_BIAS_D0_WM,0.2%)
   sys(FT_EFF_JET_Angular,0.9%)
} 
bin(50<pt<100,0<abseta<2.5)
{ 
   central_value(1.0,0.0255)
   sys(FT_EFF_TRK_SAGITTA_WM,0.2%)
   sys(FT_EFF_JER1up,0.0%)
   sys(FT_EFF_JET_GroupedNP_31up,0.3%)
   sys(FT_EFF_TRK_EFF_LOOSE_PP0,0.3%)
   sys(FT_EFF_TRK_RES_D0_DEAD,0.3%)
   sys(FT_EFF_TRK_RES_Z0_DEAD,0.0%)
   sys(FT_EFF_JET_GroupedNP_21up,0.2%)
   sys(FT_EFF_TRK_EFF_LOOSE_IBL,0.2%)
   sys(FT_EFF_TRK_BIAS_Z0_WM,1.5%)
   sys(FT_EFF_TRK_EFF_LOOSE_GLOBAL,0.1%)
   sys(FT_EFF_TRK_RES_LOOSE_D0_MEAS,19.9%)
   sys(FT_EFF_JET_GroupedNP_11down,0.1%)
   sys(FT_EFF_JET_GroupedNP_21down,0.1%)
   sys(FT_EFF_TRK_EFF_LOOSE_TIDE,0.1%)
   sys(FT_EFF_TRK_RES_LOOSE_Z0_MEAS,25.4%)
   sys(FT_EFF_TRK_FAKE_RATE,4.7%)
   sys(FT_EFF_JET_GroupedNP_11up,0.1%)
   sys(FT_EFF_TRK_EFF_LOOSE_PHYSMODEL,0.3%)
   sys(FT_EFF_JET_GroupedNP_31down,0.2%)
   sys(FT_EFF_TRK_BIAS_D0_WM,0.4%)
   sys(FT_EFF_JET_Angular,0.2%)
} 
bin(100<pt<150,0<abseta<2.5)
{ 
   central_value(1.0,0.0255)
   sys(FT_EFF_TRK_SAGITTA_WM,0.1%)
   sys(FT_EFF_JER1up,0.5%)
   sys(FT_EFF_JET_GroupedNP_31up,0.2%)
   sys(FT_EFF_TRK_EFF_LOOSE_PP0,0.5%)
   sys(FT_EFF_TRK_RES_D0_DEAD,0.5%)
   sys(FT_EFF_TRK_RES_Z0_DEAD,0.4%)
   sys(FT_EFF_JET_GroupedNP_21up,0.1%)
   sys(FT_EFF_TRK_EFF_LOOSE_IBL,0.3%)
   sys(FT_EFF_TRK_BIAS_Z0_WM,0.9%)
   sys(FT_EFF_TRK_EFF_LOOSE_GLOBAL,0.3%)
   sys(FT_EFF_TRK_RES_LOOSE_D0_MEAS,14.8%)
   sys(FT_EFF_JET_GroupedNP_11down,0.0%)
   sys(FT_EFF_JET_GroupedNP_21down,0.3%)
   sys(FT_EFF_TRK_EFF_LOOSE_TIDE,0.0%)
   sys(FT_EFF_TRK_RES_LOOSE_Z0_MEAS,22.2%)
   sys(FT_EFF_TRK_FAKE_RATE,6.0%)
   sys(FT_EFF_JET_GroupedNP_11up,0.2%)
   sys(FT_EFF_TRK_EFF_LOOSE_PHYSMODEL,0.3%)
   sys(FT_EFF_JET_GroupedNP_31down,0.0%)
   sys(FT_EFF_TRK_BIAS_D0_WM,0.5%)
   sys(FT_EFF_JET_Angular,1.0%)
} 
bin(150<pt<200,0<abseta<2.5)
{ 
   central_value(1.0,0.0255)
   sys(FT_EFF_TRK_SAGITTA_WM,1.6%)
   sys(FT_EFF_JER1up,0.9%)
   sys(FT_EFF_JET_GroupedNP_31up,0.7%)
   sys(FT_EFF_TRK_EFF_LOOSE_PP0,1.8%)
   sys(FT_EFF_TRK_RES_D0_DEAD,0.4%)
   sys(FT_EFF_TRK_RES_Z0_DEAD,0.6%)
   sys(FT_EFF_JET_GroupedNP_21up,1.0%)
   sys(FT_EFF_TRK_EFF_LOOSE_IBL,1.7%)
   sys(FT_EFF_TRK_BIAS_Z0_WM,2.8%)
   sys(FT_EFF_TRK_EFF_LOOSE_GLOBAL,1.7%)
   sys(FT_EFF_TRK_RES_LOOSE_D0_MEAS,12.4%)
   sys(FT_EFF_JET_GroupedNP_11down,0.6%)
   sys(FT_EFF_JET_GroupedNP_21down,0.6%)
   sys(FT_EFF_TRK_EFF_LOOSE_TIDE,0.9%)
   sys(FT_EFF_TRK_RES_LOOSE_Z0_MEAS,19.9%)
   sys(FT_EFF_TRK_FAKE_RATE,5.9%)
   sys(FT_EFF_JET_GroupedNP_11up,1.2%)
   sys(FT_EFF_TRK_EFF_LOOSE_PHYSMODEL,0.7%)
   sys(FT_EFF_JET_GroupedNP_31down,0.5%)
   sys(FT_EFF_TRK_BIAS_D0_WM,1.6%)
   sys(FT_EFF_JET_Angular,1.9%)
} 
bin(200<pt<300,0<abseta<2.5)
{ 
   central_value(1.0,0.0255)
   sys(FT_EFF_TRK_SAGITTA_WM,0.3%)
   sys(FT_EFF_JER1up,1.0%)
   sys(FT_EFF_JET_GroupedNP_31up,1.0%)
   sys(FT_EFF_TRK_EFF_LOOSE_PP0,0.4%)
   sys(FT_EFF_TRK_RES_D0_DEAD,0.2%)
   sys(FT_EFF_TRK_RES_Z0_DEAD,0.5%)
   sys(FT_EFF_JET_GroupedNP_21up,1.2%)
   sys(FT_EFF_TRK_EFF_LOOSE_IBL,0.2%)
   sys(FT_EFF_TRK_BIAS_Z0_WM,2.0%)
   sys(FT_EFF_TRK_EFF_LOOSE_GLOBAL,0.1%)
   sys(FT_EFF_TRK_RES_LOOSE_D0_MEAS,11.0%)
   sys(FT_EFF_JET_GroupedNP_11down,0.4%)
   sys(FT_EFF_JET_GroupedNP_21down,0.7%)
   sys(FT_EFF_TRK_EFF_LOOSE_TIDE,0.8%)
   sys(FT_EFF_TRK_RES_LOOSE_Z0_MEAS,18.3%)
   sys(FT_EFF_TRK_FAKE_RATE,10.5%)
   sys(FT_EFF_JET_GroupedNP_11up,1.0%)
   sys(FT_EFF_TRK_EFF_LOOSE_PHYSMODEL,0.2%)
   sys(FT_EFF_JET_GroupedNP_31down,0.6%)
   sys(FT_EFF_TRK_BIAS_D0_WM,0.1%)
   sys(FT_EFF_JET_Angular,1.2%)
} 
bin(300<pt<500,0<abseta<2.5)
{ 
   central_value(1.0,0.0255)
   sys(FT_EFF_TRK_SAGITTA_WM,0.5%)
   sys(FT_EFF_JER1up,1.4%)
   sys(FT_EFF_JET_GroupedNP_31up,0.3%)
   sys(FT_EFF_TRK_EFF_LOOSE_PP0,0.3%)
   sys(FT_EFF_TRK_RES_D0_DEAD,3.2%)
   sys(FT_EFF_TRK_RES_Z0_DEAD,2.3%)
   sys(FT_EFF_JET_GroupedNP_21up,0.4%)
   sys(FT_EFF_TRK_EFF_LOOSE_IBL,0.7%)
   sys(FT_EFF_TRK_BIAS_Z0_WM,1.1%)
   sys(FT_EFF_TRK_EFF_LOOSE_GLOBAL,0.8%)
   sys(FT_EFF_TRK_RES_LOOSE_D0_MEAS,9.6%)
   sys(FT_EFF_JET_GroupedNP_11down,0.6%)
   sys(FT_EFF_JET_GroupedNP_21down,0.8%)
   sys(FT_EFF_TRK_EFF_LOOSE_TIDE,1.3%)
   sys(FT_EFF_TRK_RES_LOOSE_Z0_MEAS,14.1%)
   sys(FT_EFF_TRK_FAKE_RATE,12.5%)
   sys(FT_EFF_JET_GroupedNP_11up,1.3%)
   sys(FT_EFF_TRK_EFF_LOOSE_PHYSMODEL,0.1%)
   sys(FT_EFF_JET_GroupedNP_31down,0.8%)
   sys(FT_EFF_TRK_BIAS_D0_WM,3.5%)
   sys(FT_EFF_JET_Angular,2.0%)
} 
bin(500<pt<800,0<abseta<2.5)
{ 
   central_value(1.0,0.0255)
   sys(FT_EFF_TRK_SAGITTA_WM,0.4%)
   sys(FT_EFF_JER1up,1.9%)
   sys(FT_EFF_JET_GroupedNP_31up,1.2%)
   sys(FT_EFF_TRK_EFF_LOOSE_PP0,1.0%)
   sys(FT_EFF_TRK_RES_D0_DEAD,2.1%)
   sys(FT_EFF_TRK_RES_Z0_DEAD,3.3%)
   sys(FT_EFF_JET_GroupedNP_21up,0.4%)
   sys(FT_EFF_TRK_EFF_LOOSE_IBL,0.2%)
   sys(FT_EFF_TRK_BIAS_Z0_WM,0.8%)
   sys(FT_EFF_TRK_EFF_LOOSE_GLOBAL,0.7%)
   sys(FT_EFF_TRK_RES_LOOSE_D0_MEAS,16.3%)
   sys(FT_EFF_JET_GroupedNP_11down,0.1%)
   sys(FT_EFF_JET_GroupedNP_21down,1.4%)
   sys(FT_EFF_TRK_EFF_LOOSE_TIDE,2.2%)
   sys(FT_EFF_TRK_RES_LOOSE_Z0_MEAS,14.6%)
   sys(FT_EFF_TRK_FAKE_RATE,14.8%)
   sys(FT_EFF_JET_GroupedNP_11up,2.7%)
   sys(FT_EFF_TRK_EFF_LOOSE_PHYSMODEL,0.5%)
   sys(FT_EFF_JET_GroupedNP_31down,0.3%)
   sys(FT_EFF_TRK_BIAS_D0_WM,0.9%)
   sys(FT_EFF_JET_Angular,3.0%)
} 
bin(800<pt<1200,0<abseta<2.5)
{ 
   central_value(1.0,0.0255)
   sys(FT_EFF_TRK_SAGITTA_WM,1.8%)
   sys(FT_EFF_JER1up,4.4%)
   sys(FT_EFF_JET_GroupedNP_31up,2.8%)
   sys(FT_EFF_TRK_EFF_LOOSE_PP0,14.7%)
   sys(FT_EFF_TRK_RES_D0_DEAD,2.1%)
   sys(FT_EFF_TRK_RES_Z0_DEAD,8.5%)
   sys(FT_EFF_JET_GroupedNP_21up,3.2%)
   sys(FT_EFF_TRK_EFF_LOOSE_IBL,11.2%)
   sys(FT_EFF_TRK_BIAS_Z0_WM,0.4%)
   sys(FT_EFF_TRK_EFF_LOOSE_GLOBAL,11.3%)
   sys(FT_EFF_TRK_RES_LOOSE_D0_MEAS,6.1%)
   sys(FT_EFF_JET_GroupedNP_11down,3.4%)
   sys(FT_EFF_JET_GroupedNP_21down,5.2%)
   sys(FT_EFF_TRK_EFF_LOOSE_TIDE,9.0%)
   sys(FT_EFF_TRK_RES_LOOSE_Z0_MEAS,4.4%)
   sys(FT_EFF_TRK_FAKE_RATE,26.0%)
   sys(FT_EFF_JET_GroupedNP_11up,7.1%)
   sys(FT_EFF_TRK_EFF_LOOSE_PHYSMODEL,2.0%)
   sys(FT_EFF_JET_GroupedNP_31down,6.7%)
   sys(FT_EFF_TRK_BIAS_D0_WM,3.7%)
   sys(FT_EFF_JET_Angular,2.8%)
} 
bin(1200<pt<2000,0<abseta<2.5)
{ 
   central_value(1.0,0.0255)
   sys(FT_EFF_TRK_SAGITTA_WM,32.5%)
   sys(FT_EFF_JER1up,0.6%)
   sys(FT_EFF_JET_GroupedNP_31up,5.7%)
   sys(FT_EFF_TRK_EFF_LOOSE_PP0,5.3%)
   sys(FT_EFF_TRK_RES_D0_DEAD,18.8%)
   sys(FT_EFF_TRK_RES_Z0_DEAD,7.2%)
   sys(FT_EFF_JET_GroupedNP_21up,5.9%)
   sys(FT_EFF_TRK_EFF_LOOSE_IBL,4.4%)
   sys(FT_EFF_TRK_BIAS_Z0_WM,11.5%)
   sys(FT_EFF_TRK_EFF_LOOSE_GLOBAL,8.7%)
   sys(FT_EFF_TRK_RES_LOOSE_D0_MEAS,3.0%)
   sys(FT_EFF_JET_GroupedNP_11down,1.4%)
   sys(FT_EFF_JET_GroupedNP_21down,10.6%)
   sys(FT_EFF_TRK_EFF_LOOSE_TIDE,5.4%)
   sys(FT_EFF_TRK_RES_LOOSE_Z0_MEAS,22.4%)
   sys(FT_EFF_TRK_FAKE_RATE,23.1%)
   sys(FT_EFF_JET_GroupedNP_11up,15.3%)
   sys(FT_EFF_TRK_EFF_LOOSE_PHYSMODEL,0.7%)
   sys(FT_EFF_JET_GroupedNP_31down,0.7%)
   sys(FT_EFF_TRK_BIAS_D0_WM,12.4%)
   sys(FT_EFF_JET_Angular,1.2%)
} 
} 
 
 
 
