Analysis(Run2MCcalib,bottom,MV2c10mu,HybBEff_70,AntiKt4EMTopoJets){
bin(140<pt<200,0<abseta<2.5)
{ 
   central_value(1.0,0.0255)
   sys(FT_EFF_TRK_SAGITTA_WM,0.3%)
   sys(FT_EFF_JER1up,1.6%)
   sys(FT_EFF_TRK_EFF_LOOSE_PP0,0.2%)
   sys(FT_EFF_TRK_RES_D0_DEAD,0.3%)
   sys(FT_EFF_TRK_RES_Z0_DEAD,0.1%)
   sys(FT_EFF_JET_GroupedNP_21down,0.7%)
   sys(FT_EFF_TRK_BIAS_Z0_WM,1.1%)
   sys(FT_EFF_JET_GroupedNP_31up,0.2%)
   sys(FT_EFF_TRK_EFF_LOOSE_GLOBAL,0.0%)
   sys(FT_EFF_TRK_RES_LOOSE_D0_MEAS,0.0%)
   sys(FT_EFF_TRK_EFF_LOOSE_IBL,0.1%)
   sys(FT_EFF_JET_GroupedNP_11down,0.8%)
   sys(FT_EFF_JET_GroupedNP_21up,0.0%)
   sys(FT_EFF_TRK_EFF_LOOSE_TIDE,0.0%)
   sys(FT_EFF_TRK_RES_LOOSE_Z0_MEAS,0.2%)
   sys(FT_EFF_TRK_FAKE_RATE,0.8%)
   sys(FT_EFF_JET_GroupedNP_11up,0.4%)
   sys(FT_EFF_TRK_EFF_LOOSE_PHYSMODEL,0.1%)
   sys(FT_EFF_JET_GroupedNP_31down,0.6%)
   sys(FT_EFF_TRK_BIAS_D0_WM,0.1%)
   sys(FT_EFF_JET_Angular,0.6%)
} 
bin(200<pt<300,0<abseta<2.5)
{ 
   central_value(1.0,0.0255)
   sys(FT_EFF_TRK_SAGITTA_WM,0.2%)
   sys(FT_EFF_JER1up,0.9%)
   sys(FT_EFF_TRK_EFF_LOOSE_PP0,0.4%)
   sys(FT_EFF_TRK_RES_D0_DEAD,0.6%)
   sys(FT_EFF_TRK_RES_Z0_DEAD,0.1%)
   sys(FT_EFF_JET_GroupedNP_21down,0.3%)
   sys(FT_EFF_TRK_BIAS_Z0_WM,0.7%)
   sys(FT_EFF_JET_GroupedNP_31up,0.2%)
   sys(FT_EFF_TRK_EFF_LOOSE_GLOBAL,0.2%)
   sys(FT_EFF_TRK_RES_LOOSE_D0_MEAS,1.9%)
   sys(FT_EFF_TRK_EFF_LOOSE_IBL,0.3%)
   sys(FT_EFF_JET_GroupedNP_11down,0.4%)
   sys(FT_EFF_JET_GroupedNP_21up,0.2%)
   sys(FT_EFF_TRK_EFF_LOOSE_TIDE,0.1%)
   sys(FT_EFF_TRK_RES_LOOSE_Z0_MEAS,1.9%)
   sys(FT_EFF_TRK_FAKE_RATE,0.4%)
   sys(FT_EFF_JET_GroupedNP_11up,0.5%)
   sys(FT_EFF_TRK_EFF_LOOSE_PHYSMODEL,0.1%)
   sys(FT_EFF_JET_GroupedNP_31down,0.1%)
   sys(FT_EFF_TRK_BIAS_D0_WM,0.3%)
   sys(FT_EFF_JET_Angular,1.1%)
} 
bin(300<pt<500,0<abseta<2.5)
{ 
   central_value(1.0,0.0255)
   sys(FT_EFF_TRK_SAGITTA_WM,0.2%)
   sys(FT_EFF_JER1up,0.5%)
   sys(FT_EFF_TRK_EFF_LOOSE_PP0,0.1%)
   sys(FT_EFF_TRK_RES_D0_DEAD,1.2%)
   sys(FT_EFF_TRK_RES_Z0_DEAD,0.4%)
   sys(FT_EFF_JET_GroupedNP_21down,0.5%)
   sys(FT_EFF_TRK_BIAS_Z0_WM,0.3%)
   sys(FT_EFF_JET_GroupedNP_31up,0.4%)
   sys(FT_EFF_TRK_EFF_LOOSE_GLOBAL,0.2%)
   sys(FT_EFF_TRK_RES_LOOSE_D0_MEAS,0.1%)
   sys(FT_EFF_TRK_EFF_LOOSE_IBL,0.6%)
   sys(FT_EFF_JET_GroupedNP_11down,0.9%)
   sys(FT_EFF_JET_GroupedNP_21up,0.2%)
   sys(FT_EFF_TRK_EFF_LOOSE_TIDE,0.3%)
   sys(FT_EFF_TRK_RES_LOOSE_Z0_MEAS,0.4%)
   sys(FT_EFF_TRK_FAKE_RATE,3.2%)
   sys(FT_EFF_JET_GroupedNP_11up,0.4%)
   sys(FT_EFF_TRK_EFF_LOOSE_PHYSMODEL,0.6%)
   sys(FT_EFF_JET_GroupedNP_31down,0.9%)
   sys(FT_EFF_TRK_BIAS_D0_WM,0.2%)
   sys(FT_EFF_JET_Angular,1.5%)
} 
bin(500<pt<800,0<abseta<2.5)
{ 
   central_value(1.0,0.0255)
   sys(FT_EFF_TRK_SAGITTA_WM,1.9%)
   sys(FT_EFF_JER1up,0.0%)
   sys(FT_EFF_TRK_EFF_LOOSE_PP0,0.3%)
   sys(FT_EFF_TRK_RES_D0_DEAD,0.0%)
   sys(FT_EFF_TRK_RES_Z0_DEAD,1.7%)
   sys(FT_EFF_JET_GroupedNP_21down,1.6%)
   sys(FT_EFF_TRK_BIAS_Z0_WM,0.7%)
   sys(FT_EFF_JET_GroupedNP_31up,1.3%)
   sys(FT_EFF_TRK_EFF_LOOSE_GLOBAL,0.1%)
   sys(FT_EFF_TRK_RES_LOOSE_D0_MEAS,1.1%)
   sys(FT_EFF_TRK_EFF_LOOSE_IBL,0.1%)
   sys(FT_EFF_JET_GroupedNP_11down,1.1%)
   sys(FT_EFF_JET_GroupedNP_21up,1.5%)
   sys(FT_EFF_TRK_EFF_LOOSE_TIDE,0.1%)
   sys(FT_EFF_TRK_RES_LOOSE_Z0_MEAS,0.2%)
   sys(FT_EFF_TRK_FAKE_RATE,3.9%)
   sys(FT_EFF_JET_GroupedNP_11up,1.0%)
   sys(FT_EFF_TRK_EFF_LOOSE_PHYSMODEL,0.3%)
   sys(FT_EFF_JET_GroupedNP_31down,1.1%)
   sys(FT_EFF_TRK_BIAS_D0_WM,1.9%)
   sys(FT_EFF_JET_Angular,1.0%)
} 
bin(800<pt<1200,0<abseta<2.5)
{ 
   central_value(1.0,0.0255)
   sys(FT_EFF_TRK_SAGITTA_WM,1.9%)
   sys(FT_EFF_JER1up,0.8%)
   sys(FT_EFF_TRK_EFF_LOOSE_PP0,0.2%)
   sys(FT_EFF_TRK_RES_D0_DEAD,0.3%)
   sys(FT_EFF_TRK_RES_Z0_DEAD,2.9%)
   sys(FT_EFF_JET_GroupedNP_21down,0.8%)
   sys(FT_EFF_TRK_BIAS_Z0_WM,1.6%)
   sys(FT_EFF_JET_GroupedNP_31up,0.5%)
   sys(FT_EFF_TRK_EFF_LOOSE_GLOBAL,0.5%)
   sys(FT_EFF_TRK_RES_LOOSE_D0_MEAS,2.6%)
   sys(FT_EFF_TRK_EFF_LOOSE_IBL,0.7%)
   sys(FT_EFF_JET_GroupedNP_11down,0.2%)
   sys(FT_EFF_JET_GroupedNP_21up,0.3%)
   sys(FT_EFF_TRK_EFF_LOOSE_TIDE,0.2%)
   sys(FT_EFF_TRK_RES_LOOSE_Z0_MEAS,2.1%)
   sys(FT_EFF_TRK_FAKE_RATE,5.9%)
   sys(FT_EFF_JET_GroupedNP_11up,0.6%)
   sys(FT_EFF_TRK_EFF_LOOSE_PHYSMODEL,0.7%)
   sys(FT_EFF_JET_GroupedNP_31down,0.1%)
   sys(FT_EFF_TRK_BIAS_D0_WM,1.0%)
   sys(FT_EFF_JET_Angular,2.6%)
} 
bin(1200<pt<2000,0<abseta<2.5)
{ 
   central_value(1.0,0.0255)
   sys(FT_EFF_TRK_SAGITTA_WM,0.9%)
   sys(FT_EFF_JER1up,1.6%)
   sys(FT_EFF_TRK_EFF_LOOSE_PP0,0.0%)
   sys(FT_EFF_TRK_RES_D0_DEAD,0.3%)
   sys(FT_EFF_TRK_RES_Z0_DEAD,3.5%)
   sys(FT_EFF_JET_GroupedNP_21down,2.9%)
   sys(FT_EFF_TRK_BIAS_Z0_WM,2.8%)
   sys(FT_EFF_JET_GroupedNP_31up,0.8%)
   sys(FT_EFF_TRK_EFF_LOOSE_GLOBAL,0.9%)
   sys(FT_EFF_TRK_RES_LOOSE_D0_MEAS,2.6%)
   sys(FT_EFF_TRK_EFF_LOOSE_IBL,0.2%)
   sys(FT_EFF_JET_GroupedNP_11down,1.6%)
   sys(FT_EFF_JET_GroupedNP_21up,1.1%)
   sys(FT_EFF_TRK_EFF_LOOSE_TIDE,0.0%)
   sys(FT_EFF_TRK_RES_LOOSE_Z0_MEAS,1.7%)
   sys(FT_EFF_TRK_FAKE_RATE,12.8%)
   sys(FT_EFF_JET_GroupedNP_11up,0.1%)
   sys(FT_EFF_TRK_EFF_LOOSE_PHYSMODEL,0.0%)
   sys(FT_EFF_JET_GroupedNP_31down,4.6%)
   sys(FT_EFF_TRK_BIAS_D0_WM,0.7%)
   sys(FT_EFF_JET_Angular,0.7%)
} 
bin(2000<pt<3000,0<abseta<2.5)
{ 
   central_value(1.0,0.0255)
   sys(FT_EFF_TRK_SAGITTA_WM,4.1%)
   sys(FT_EFF_JER1up,1.9%)
   sys(FT_EFF_TRK_EFF_LOOSE_PP0,0.0%)
   sys(FT_EFF_TRK_RES_D0_DEAD,3.7%)
   sys(FT_EFF_TRK_RES_Z0_DEAD,1.2%)
   sys(FT_EFF_JET_GroupedNP_21down,2.3%)
   sys(FT_EFF_TRK_BIAS_Z0_WM,2.0%)
   sys(FT_EFF_JET_GroupedNP_31up,1.3%)
   sys(FT_EFF_TRK_EFF_LOOSE_GLOBAL,0.4%)
   sys(FT_EFF_TRK_RES_LOOSE_D0_MEAS,10.6%)
   sys(FT_EFF_TRK_EFF_LOOSE_IBL,0.8%)
   sys(FT_EFF_JET_GroupedNP_11down,0.9%)
   sys(FT_EFF_JET_GroupedNP_21up,1.6%)
   sys(FT_EFF_TRK_EFF_LOOSE_TIDE,0.0%)
   sys(FT_EFF_TRK_RES_LOOSE_Z0_MEAS,5.7%)
   sys(FT_EFF_TRK_FAKE_RATE,21.2%)
   sys(FT_EFF_JET_GroupedNP_11up,0.3%)
   sys(FT_EFF_TRK_EFF_LOOSE_PHYSMODEL,0.0%)
   sys(FT_EFF_JET_GroupedNP_31down,4.3%)
   sys(FT_EFF_TRK_BIAS_D0_WM,4.9%)
   sys(FT_EFF_JET_Angular,0.8%)
} 
} 
 
 
 
