Analysis(Run2MCcalib,light,MV2c10rnn,HybBEff_85,AntiKt4EMTopoJets){
bin(0<pt<50,0<abseta<2.5)
{ 
   central_value(1.0,0.0255)
   sys(FT_EFF_TRK_SAGITTA_WM,0.1%)
   sys(FT_EFF_JER1up,0.9%)
   sys(FT_EFF_JET_GroupedNP_31up,0.1%)
   sys(FT_EFF_TRK_EFF_LOOSE_PP0,0.1%)
   sys(FT_EFF_TRK_RES_D0_DEAD,0.1%)
   sys(FT_EFF_TRK_RES_Z0_DEAD,0.1%)
   sys(FT_EFF_JET_GroupedNP_21up,0.9%)
   sys(FT_EFF_TRK_EFF_LOOSE_IBL,0.1%)
   sys(FT_EFF_TRK_BIAS_Z0_WM,0.4%)
   sys(FT_EFF_TRK_EFF_LOOSE_GLOBAL,0.1%)
   sys(FT_EFF_TRK_RES_LOOSE_D0_MEAS,15.2%)
   sys(FT_EFF_JET_GroupedNP_11down,4.7%)
   sys(FT_EFF_JET_GroupedNP_21down,1.1%)
   sys(FT_EFF_TRK_EFF_LOOSE_TIDE,0.1%)
   sys(FT_EFF_TRK_RES_LOOSE_Z0_MEAS,13.2%)
   sys(FT_EFF_TRK_FAKE_RATE,1.9%)
   sys(FT_EFF_JET_GroupedNP_11up,3.9%)
   sys(FT_EFF_TRK_EFF_LOOSE_PHYSMODEL,0.0%)
   sys(FT_EFF_JET_GroupedNP_31down,0.0%)
   sys(FT_EFF_TRK_BIAS_D0_WM,0.1%)
   sys(FT_EFF_JET_Angular,0.6%)
} 
bin(50<pt<100,0<abseta<2.5)
{ 
   central_value(1.0,0.0255)
   sys(FT_EFF_TRK_SAGITTA_WM,0.0%)
   sys(FT_EFF_JER1up,0.0%)
   sys(FT_EFF_JET_GroupedNP_31up,0.2%)
   sys(FT_EFF_TRK_EFF_LOOSE_PP0,0.2%)
   sys(FT_EFF_TRK_RES_D0_DEAD,0.0%)
   sys(FT_EFF_TRK_RES_Z0_DEAD,0.1%)
   sys(FT_EFF_JET_GroupedNP_21up,0.2%)
   sys(FT_EFF_TRK_EFF_LOOSE_IBL,0.0%)
   sys(FT_EFF_TRK_BIAS_Z0_WM,1.2%)
   sys(FT_EFF_TRK_EFF_LOOSE_GLOBAL,0.0%)
   sys(FT_EFF_TRK_RES_LOOSE_D0_MEAS,19.2%)
   sys(FT_EFF_JET_GroupedNP_11down,0.0%)
   sys(FT_EFF_JET_GroupedNP_21down,0.1%)
   sys(FT_EFF_TRK_EFF_LOOSE_TIDE,0.1%)
   sys(FT_EFF_TRK_RES_LOOSE_Z0_MEAS,21.8%)
   sys(FT_EFF_TRK_FAKE_RATE,4.6%)
   sys(FT_EFF_JET_GroupedNP_11up,0.1%)
   sys(FT_EFF_TRK_EFF_LOOSE_PHYSMODEL,0.2%)
   sys(FT_EFF_JET_GroupedNP_31down,0.1%)
   sys(FT_EFF_TRK_BIAS_D0_WM,0.0%)
   sys(FT_EFF_JET_Angular,0.2%)
} 
bin(100<pt<150,0<abseta<2.5)
{ 
   central_value(1.0,0.0255)
   sys(FT_EFF_TRK_SAGITTA_WM,0.3%)
   sys(FT_EFF_JER1up,0.1%)
   sys(FT_EFF_JET_GroupedNP_31up,0.2%)
   sys(FT_EFF_TRK_EFF_LOOSE_PP0,0.2%)
   sys(FT_EFF_TRK_RES_D0_DEAD,0.4%)
   sys(FT_EFF_TRK_RES_Z0_DEAD,0.4%)
   sys(FT_EFF_JET_GroupedNP_21up,0.1%)
   sys(FT_EFF_TRK_EFF_LOOSE_IBL,0.1%)
   sys(FT_EFF_TRK_BIAS_Z0_WM,1.2%)
   sys(FT_EFF_TRK_EFF_LOOSE_GLOBAL,0.1%)
   sys(FT_EFF_TRK_RES_LOOSE_D0_MEAS,17.3%)
   sys(FT_EFF_JET_GroupedNP_11down,0.2%)
   sys(FT_EFF_JET_GroupedNP_21down,0.3%)
   sys(FT_EFF_TRK_EFF_LOOSE_TIDE,0.2%)
   sys(FT_EFF_TRK_RES_LOOSE_Z0_MEAS,21.6%)
   sys(FT_EFF_TRK_FAKE_RATE,6.6%)
   sys(FT_EFF_JET_GroupedNP_11up,0.0%)
   sys(FT_EFF_TRK_EFF_LOOSE_PHYSMODEL,0.2%)
   sys(FT_EFF_JET_GroupedNP_31down,0.3%)
   sys(FT_EFF_TRK_BIAS_D0_WM,0.4%)
   sys(FT_EFF_JET_Angular,1.0%)
} 
bin(150<pt<200,0<abseta<2.5)
{ 
   central_value(1.0,0.0255)
   sys(FT_EFF_TRK_SAGITTA_WM,0.4%)
   sys(FT_EFF_JER1up,0.1%)
   sys(FT_EFF_JET_GroupedNP_31up,0.3%)
   sys(FT_EFF_TRK_EFF_LOOSE_PP0,1.2%)
   sys(FT_EFF_TRK_RES_D0_DEAD,0.6%)
   sys(FT_EFF_TRK_RES_Z0_DEAD,0.3%)
   sys(FT_EFF_JET_GroupedNP_21up,0.2%)
   sys(FT_EFF_TRK_EFF_LOOSE_IBL,1.0%)
   sys(FT_EFF_TRK_BIAS_Z0_WM,2.5%)
   sys(FT_EFF_TRK_EFF_LOOSE_GLOBAL,1.1%)
   sys(FT_EFF_TRK_RES_LOOSE_D0_MEAS,14.0%)
   sys(FT_EFF_JET_GroupedNP_11down,0.0%)
   sys(FT_EFF_JET_GroupedNP_21down,0.3%)
   sys(FT_EFF_TRK_EFF_LOOSE_TIDE,0.5%)
   sys(FT_EFF_TRK_RES_LOOSE_Z0_MEAS,20.2%)
   sys(FT_EFF_TRK_FAKE_RATE,7.3%)
   sys(FT_EFF_JET_GroupedNP_11up,0.4%)
   sys(FT_EFF_TRK_EFF_LOOSE_PHYSMODEL,0.5%)
   sys(FT_EFF_JET_GroupedNP_31down,0.1%)
   sys(FT_EFF_TRK_BIAS_D0_WM,1.3%)
   sys(FT_EFF_JET_Angular,1.6%)
} 
bin(200<pt<300,0<abseta<2.5)
{ 
   central_value(1.0,0.0255)
   sys(FT_EFF_TRK_SAGITTA_WM,0.3%)
   sys(FT_EFF_JER1up,0.5%)
   sys(FT_EFF_JET_GroupedNP_31up,0.2%)
   sys(FT_EFF_TRK_EFF_LOOSE_PP0,0.5%)
   sys(FT_EFF_TRK_RES_D0_DEAD,0.5%)
   sys(FT_EFF_TRK_RES_Z0_DEAD,0.4%)
   sys(FT_EFF_JET_GroupedNP_21up,0.2%)
   sys(FT_EFF_TRK_EFF_LOOSE_IBL,0.1%)
   sys(FT_EFF_TRK_BIAS_Z0_WM,1.5%)
   sys(FT_EFF_TRK_EFF_LOOSE_GLOBAL,0.1%)
   sys(FT_EFF_TRK_RES_LOOSE_D0_MEAS,14.3%)
   sys(FT_EFF_JET_GroupedNP_11down,0.0%)
   sys(FT_EFF_JET_GroupedNP_21down,0.1%)
   sys(FT_EFF_TRK_EFF_LOOSE_TIDE,0.4%)
   sys(FT_EFF_TRK_RES_LOOSE_Z0_MEAS,18.9%)
   sys(FT_EFF_TRK_FAKE_RATE,10.9%)
   sys(FT_EFF_JET_GroupedNP_11up,0.2%)
   sys(FT_EFF_TRK_EFF_LOOSE_PHYSMODEL,0.3%)
   sys(FT_EFF_JET_GroupedNP_31down,0.2%)
   sys(FT_EFF_TRK_BIAS_D0_WM,0.3%)
   sys(FT_EFF_JET_Angular,1.9%)
} 
bin(300<pt<500,0<abseta<2.5)
{ 
   central_value(1.0,0.0255)
   sys(FT_EFF_TRK_SAGITTA_WM,0.0%)
   sys(FT_EFF_JER1up,0.7%)
   sys(FT_EFF_JET_GroupedNP_31up,0.8%)
   sys(FT_EFF_TRK_EFF_LOOSE_PP0,0.1%)
   sys(FT_EFF_TRK_RES_D0_DEAD,2.0%)
   sys(FT_EFF_TRK_RES_Z0_DEAD,0.7%)
   sys(FT_EFF_JET_GroupedNP_21up,0.4%)
   sys(FT_EFF_TRK_EFF_LOOSE_IBL,0.4%)
   sys(FT_EFF_TRK_BIAS_Z0_WM,1.5%)
   sys(FT_EFF_TRK_EFF_LOOSE_GLOBAL,0.1%)
   sys(FT_EFF_TRK_RES_LOOSE_D0_MEAS,12.1%)
   sys(FT_EFF_JET_GroupedNP_11down,0.0%)
   sys(FT_EFF_JET_GroupedNP_21down,0.1%)
   sys(FT_EFF_TRK_EFF_LOOSE_TIDE,0.8%)
   sys(FT_EFF_TRK_RES_LOOSE_Z0_MEAS,15.2%)
   sys(FT_EFF_TRK_FAKE_RATE,11.8%)
   sys(FT_EFF_JET_GroupedNP_11up,0.8%)
   sys(FT_EFF_TRK_EFF_LOOSE_PHYSMODEL,0.1%)
   sys(FT_EFF_JET_GroupedNP_31down,0.8%)
   sys(FT_EFF_TRK_BIAS_D0_WM,0.7%)
   sys(FT_EFF_JET_Angular,3.0%)
} 
bin(500<pt<800,0<abseta<2.5)
{ 
   central_value(1.0,0.0255)
   sys(FT_EFF_TRK_SAGITTA_WM,0.3%)
   sys(FT_EFF_JER1up,0.0%)
   sys(FT_EFF_JET_GroupedNP_31up,0.5%)
   sys(FT_EFF_TRK_EFF_LOOSE_PP0,1.5%)
   sys(FT_EFF_TRK_RES_D0_DEAD,1.0%)
   sys(FT_EFF_TRK_RES_Z0_DEAD,0.6%)
   sys(FT_EFF_JET_GroupedNP_21up,0.7%)
   sys(FT_EFF_TRK_EFF_LOOSE_IBL,1.0%)
   sys(FT_EFF_TRK_BIAS_Z0_WM,0.0%)
   sys(FT_EFF_TRK_EFF_LOOSE_GLOBAL,0.9%)
   sys(FT_EFF_TRK_RES_LOOSE_D0_MEAS,15.6%)
   sys(FT_EFF_JET_GroupedNP_11down,0.9%)
   sys(FT_EFF_JET_GroupedNP_21down,1.0%)
   sys(FT_EFF_TRK_EFF_LOOSE_TIDE,0.9%)
   sys(FT_EFF_TRK_RES_LOOSE_Z0_MEAS,14.5%)
   sys(FT_EFF_TRK_FAKE_RATE,11.1%)
   sys(FT_EFF_JET_GroupedNP_11up,0.3%)
   sys(FT_EFF_TRK_EFF_LOOSE_PHYSMODEL,0.8%)
   sys(FT_EFF_JET_GroupedNP_31down,1.4%)
   sys(FT_EFF_TRK_BIAS_D0_WM,0.4%)
   sys(FT_EFF_JET_Angular,5.3%)
} 
bin(800<pt<1200,0<abseta<2.5)
{ 
   central_value(1.0,0.0255)
   sys(FT_EFF_TRK_SAGITTA_WM,2.6%)
   sys(FT_EFF_JER1up,0.6%)
   sys(FT_EFF_JET_GroupedNP_31up,1.8%)
   sys(FT_EFF_TRK_EFF_LOOSE_PP0,2.1%)
   sys(FT_EFF_TRK_RES_D0_DEAD,6.1%)
   sys(FT_EFF_TRK_RES_Z0_DEAD,0.0%)
   sys(FT_EFF_JET_GroupedNP_21up,0.2%)
   sys(FT_EFF_TRK_EFF_LOOSE_IBL,1.5%)
   sys(FT_EFF_TRK_BIAS_Z0_WM,5.7%)
   sys(FT_EFF_TRK_EFF_LOOSE_GLOBAL,2.7%)
   sys(FT_EFF_TRK_RES_LOOSE_D0_MEAS,10.2%)
   sys(FT_EFF_JET_GroupedNP_11down,0.1%)
   sys(FT_EFF_JET_GroupedNP_21down,0.8%)
   sys(FT_EFF_TRK_EFF_LOOSE_TIDE,1.7%)
   sys(FT_EFF_TRK_RES_LOOSE_Z0_MEAS,9.5%)
   sys(FT_EFF_TRK_FAKE_RATE,21.7%)
   sys(FT_EFF_JET_GroupedNP_11up,1.2%)
   sys(FT_EFF_TRK_EFF_LOOSE_PHYSMODEL,0.0%)
   sys(FT_EFF_JET_GroupedNP_31down,0.1%)
   sys(FT_EFF_TRK_BIAS_D0_WM,3.8%)
   sys(FT_EFF_JET_Angular,6.8%)
} 
bin(1200<pt<2000,0<abseta<2.5)
{ 
   central_value(1.0,0.0255)
   sys(FT_EFF_TRK_SAGITTA_WM,2.1%)
   sys(FT_EFF_JER1up,6.4%)
   sys(FT_EFF_JET_GroupedNP_31up,3.6%)
   sys(FT_EFF_TRK_EFF_LOOSE_PP0,1.7%)
   sys(FT_EFF_TRK_RES_D0_DEAD,0.3%)
   sys(FT_EFF_TRK_RES_Z0_DEAD,1.0%)
   sys(FT_EFF_JET_GroupedNP_21up,2.8%)
   sys(FT_EFF_TRK_EFF_LOOSE_IBL,1.3%)
   sys(FT_EFF_TRK_BIAS_Z0_WM,10.4%)
   sys(FT_EFF_TRK_EFF_LOOSE_GLOBAL,1.3%)
   sys(FT_EFF_TRK_RES_LOOSE_D0_MEAS,21.5%)
   sys(FT_EFF_JET_GroupedNP_11down,3.3%)
   sys(FT_EFF_JET_GroupedNP_21down,8.0%)
   sys(FT_EFF_TRK_EFF_LOOSE_TIDE,2.0%)
   sys(FT_EFF_TRK_RES_LOOSE_Z0_MEAS,13.5%)
   sys(FT_EFF_TRK_FAKE_RATE,20.8%)
   sys(FT_EFF_JET_GroupedNP_11up,10.4%)
   sys(FT_EFF_TRK_EFF_LOOSE_PHYSMODEL,2.3%)
   sys(FT_EFF_JET_GroupedNP_31down,1.7%)
   sys(FT_EFF_TRK_BIAS_D0_WM,7.5%)
   sys(FT_EFF_JET_Angular,9.8%)
} 
} 
 
 
 
