Analysis(Run2MCcalib,bottom,MV2c10rnn,HybBEff_60,AntiKt4EMTopoJets){
bin(140<pt<200,0<abseta<2.5)
{ 
   central_value(1.0,0.0255)
   sys(FT_EFF_TRK_SAGITTA_WM,0.1%)
   sys(FT_EFF_JER1up,2.0%)
   sys(FT_EFF_TRK_EFF_LOOSE_PP0,0.3%)
   sys(FT_EFF_TRK_RES_D0_DEAD,1.2%)
   sys(FT_EFF_TRK_RES_Z0_DEAD,0.2%)
   sys(FT_EFF_JET_GroupedNP_21down,0.6%)
   sys(FT_EFF_TRK_BIAS_Z0_WM,0.6%)
   sys(FT_EFF_JET_GroupedNP_31up,0.6%)
   sys(FT_EFF_TRK_EFF_LOOSE_GLOBAL,0.2%)
   sys(FT_EFF_TRK_RES_LOOSE_D0_MEAS,0.1%)
   sys(FT_EFF_TRK_EFF_LOOSE_IBL,0.3%)
   sys(FT_EFF_JET_GroupedNP_11down,0.5%)
   sys(FT_EFF_JET_GroupedNP_21up,0.0%)
   sys(FT_EFF_TRK_EFF_LOOSE_TIDE,0.0%)
   sys(FT_EFF_TRK_RES_LOOSE_Z0_MEAS,0.6%)
   sys(FT_EFF_TRK_FAKE_RATE,1.2%)
   sys(FT_EFF_JET_GroupedNP_11up,0.2%)
   sys(FT_EFF_TRK_EFF_LOOSE_PHYSMODEL,0.1%)
   sys(FT_EFF_JET_GroupedNP_31down,0.1%)
   sys(FT_EFF_TRK_BIAS_D0_WM,0.8%)
   sys(FT_EFF_JET_Angular,0.3%)
} 
bin(200<pt<300,0<abseta<2.5)
{ 
   central_value(1.0,0.0255)
   sys(FT_EFF_TRK_SAGITTA_WM,0.8%)
   sys(FT_EFF_JER1up,0.4%)
   sys(FT_EFF_TRK_EFF_LOOSE_PP0,0.5%)
   sys(FT_EFF_TRK_RES_D0_DEAD,0.3%)
   sys(FT_EFF_TRK_RES_Z0_DEAD,0.4%)
   sys(FT_EFF_JET_GroupedNP_21down,0.1%)
   sys(FT_EFF_TRK_BIAS_Z0_WM,1.5%)
   sys(FT_EFF_JET_GroupedNP_31up,0.2%)
   sys(FT_EFF_TRK_EFF_LOOSE_GLOBAL,0.2%)
   sys(FT_EFF_TRK_RES_LOOSE_D0_MEAS,2.6%)
   sys(FT_EFF_TRK_EFF_LOOSE_IBL,0.2%)
   sys(FT_EFF_JET_GroupedNP_11down,0.1%)
   sys(FT_EFF_JET_GroupedNP_21up,0.3%)
   sys(FT_EFF_TRK_EFF_LOOSE_TIDE,0.0%)
   sys(FT_EFF_TRK_RES_LOOSE_Z0_MEAS,0.8%)
   sys(FT_EFF_TRK_FAKE_RATE,0.5%)
   sys(FT_EFF_JET_GroupedNP_11up,0.6%)
   sys(FT_EFF_TRK_EFF_LOOSE_PHYSMODEL,0.3%)
   sys(FT_EFF_JET_GroupedNP_31down,0.2%)
   sys(FT_EFF_TRK_BIAS_D0_WM,1.2%)
   sys(FT_EFF_JET_Angular,0.9%)
} 
bin(300<pt<500,0<abseta<2.5)
{ 
   central_value(1.0,0.0255)
   sys(FT_EFF_TRK_SAGITTA_WM,1.9%)
   sys(FT_EFF_JER1up,0.3%)
   sys(FT_EFF_TRK_EFF_LOOSE_PP0,0.0%)
   sys(FT_EFF_TRK_RES_D0_DEAD,0.6%)
   sys(FT_EFF_TRK_RES_Z0_DEAD,1.2%)
   sys(FT_EFF_JET_GroupedNP_21down,0.7%)
   sys(FT_EFF_TRK_BIAS_Z0_WM,0.8%)
   sys(FT_EFF_JET_GroupedNP_31up,0.8%)
   sys(FT_EFF_TRK_EFF_LOOSE_GLOBAL,0.2%)
   sys(FT_EFF_TRK_RES_LOOSE_D0_MEAS,1.5%)
   sys(FT_EFF_TRK_EFF_LOOSE_IBL,0.2%)
   sys(FT_EFF_JET_GroupedNP_11down,0.6%)
   sys(FT_EFF_JET_GroupedNP_21up,0.2%)
   sys(FT_EFF_TRK_EFF_LOOSE_TIDE,0.0%)
   sys(FT_EFF_TRK_RES_LOOSE_Z0_MEAS,1.2%)
   sys(FT_EFF_TRK_FAKE_RATE,2.5%)
   sys(FT_EFF_JET_GroupedNP_11up,0.6%)
   sys(FT_EFF_TRK_EFF_LOOSE_PHYSMODEL,0.1%)
   sys(FT_EFF_JET_GroupedNP_31down,0.6%)
   sys(FT_EFF_TRK_BIAS_D0_WM,0.1%)
   sys(FT_EFF_JET_Angular,1.1%)
} 
bin(500<pt<800,0<abseta<2.5)
{ 
   central_value(1.0,0.0255)
   sys(FT_EFF_TRK_SAGITTA_WM,3.1%)
   sys(FT_EFF_JER1up,1.1%)
   sys(FT_EFF_TRK_EFF_LOOSE_PP0,0.3%)
   sys(FT_EFF_TRK_RES_D0_DEAD,1.3%)
   sys(FT_EFF_TRK_RES_Z0_DEAD,2.9%)
   sys(FT_EFF_JET_GroupedNP_21down,2.4%)
   sys(FT_EFF_TRK_BIAS_Z0_WM,2.9%)
   sys(FT_EFF_JET_GroupedNP_31up,0.6%)
   sys(FT_EFF_TRK_EFF_LOOSE_GLOBAL,0.3%)
   sys(FT_EFF_TRK_RES_LOOSE_D0_MEAS,2.7%)
   sys(FT_EFF_TRK_EFF_LOOSE_IBL,0.2%)
   sys(FT_EFF_JET_GroupedNP_11down,1.4%)
   sys(FT_EFF_JET_GroupedNP_21up,1.7%)
   sys(FT_EFF_TRK_EFF_LOOSE_TIDE,0.3%)
   sys(FT_EFF_TRK_RES_LOOSE_Z0_MEAS,2.9%)
   sys(FT_EFF_TRK_FAKE_RATE,2.6%)
   sys(FT_EFF_JET_GroupedNP_11up,0.6%)
   sys(FT_EFF_TRK_EFF_LOOSE_PHYSMODEL,0.2%)
   sys(FT_EFF_JET_GroupedNP_31down,1.0%)
   sys(FT_EFF_TRK_BIAS_D0_WM,2.9%)
   sys(FT_EFF_JET_Angular,0.8%)
} 
bin(800<pt<1200,0<abseta<2.5)
{ 
   central_value(1.0,0.0255)
   sys(FT_EFF_TRK_SAGITTA_WM,3.7%)
   sys(FT_EFF_JER1up,1.1%)
   sys(FT_EFF_TRK_EFF_LOOSE_PP0,0.4%)
   sys(FT_EFF_TRK_RES_D0_DEAD,0.4%)
   sys(FT_EFF_TRK_RES_Z0_DEAD,1.2%)
   sys(FT_EFF_JET_GroupedNP_21down,2.1%)
   sys(FT_EFF_TRK_BIAS_Z0_WM,1.7%)
   sys(FT_EFF_JET_GroupedNP_31up,1.2%)
   sys(FT_EFF_TRK_EFF_LOOSE_GLOBAL,0.8%)
   sys(FT_EFF_TRK_RES_LOOSE_D0_MEAS,7.9%)
   sys(FT_EFF_TRK_EFF_LOOSE_IBL,0.4%)
   sys(FT_EFF_JET_GroupedNP_11down,1.2%)
   sys(FT_EFF_JET_GroupedNP_21up,0.3%)
   sys(FT_EFF_TRK_EFF_LOOSE_TIDE,0.4%)
   sys(FT_EFF_TRK_RES_LOOSE_Z0_MEAS,3.7%)
   sys(FT_EFF_TRK_FAKE_RATE,6.6%)
   sys(FT_EFF_JET_GroupedNP_11up,0.5%)
   sys(FT_EFF_TRK_EFF_LOOSE_PHYSMODEL,0.0%)
   sys(FT_EFF_JET_GroupedNP_31down,2.3%)
   sys(FT_EFF_TRK_BIAS_D0_WM,2.1%)
   sys(FT_EFF_JET_Angular,6.2%)
} 
bin(1200<pt<2000,0<abseta<2.5)
{ 
   central_value(1.0,0.0255)
   sys(FT_EFF_TRK_SAGITTA_WM,5.2%)
   sys(FT_EFF_JER1up,3.2%)
   sys(FT_EFF_TRK_EFF_LOOSE_PP0,0.0%)
   sys(FT_EFF_TRK_RES_D0_DEAD,2.2%)
   sys(FT_EFF_TRK_RES_Z0_DEAD,2.2%)
   sys(FT_EFF_JET_GroupedNP_21down,1.9%)
   sys(FT_EFF_TRK_BIAS_Z0_WM,5.7%)
   sys(FT_EFF_JET_GroupedNP_31up,0.3%)
   sys(FT_EFF_TRK_EFF_LOOSE_GLOBAL,0.9%)
   sys(FT_EFF_TRK_RES_LOOSE_D0_MEAS,4.8%)
   sys(FT_EFF_TRK_EFF_LOOSE_IBL,1.3%)
   sys(FT_EFF_JET_GroupedNP_11down,0.4%)
   sys(FT_EFF_JET_GroupedNP_21up,2.9%)
   sys(FT_EFF_TRK_EFF_LOOSE_TIDE,0.4%)
   sys(FT_EFF_TRK_RES_LOOSE_Z0_MEAS,12.2%)
   sys(FT_EFF_TRK_FAKE_RATE,7.4%)
   sys(FT_EFF_JET_GroupedNP_11up,1.0%)
   sys(FT_EFF_TRK_EFF_LOOSE_PHYSMODEL,0.4%)
   sys(FT_EFF_JET_GroupedNP_31down,1.8%)
   sys(FT_EFF_TRK_BIAS_D0_WM,4.3%)
   sys(FT_EFF_JET_Angular,3.9%)
} 
bin(2000<pt<3000,0<abseta<2.5)
{ 
   central_value(1.0,0.0255)
   sys(FT_EFF_TRK_SAGITTA_WM,5.6%)
   sys(FT_EFF_JER1up,2.2%)
   sys(FT_EFF_TRK_EFF_LOOSE_PP0,0.0%)
   sys(FT_EFF_TRK_RES_D0_DEAD,0.9%)
   sys(FT_EFF_TRK_RES_Z0_DEAD,2.8%)
   sys(FT_EFF_JET_GroupedNP_21down,3.9%)
   sys(FT_EFF_TRK_BIAS_Z0_WM,6.5%)
   sys(FT_EFF_JET_GroupedNP_31up,0.4%)
   sys(FT_EFF_TRK_EFF_LOOSE_GLOBAL,1.9%)
   sys(FT_EFF_TRK_RES_LOOSE_D0_MEAS,7.4%)
   sys(FT_EFF_TRK_EFF_LOOSE_IBL,0.9%)
   sys(FT_EFF_JET_GroupedNP_11down,1.6%)
   sys(FT_EFF_JET_GroupedNP_21up,0.4%)
   sys(FT_EFF_TRK_EFF_LOOSE_TIDE,0.9%)
   sys(FT_EFF_TRK_RES_LOOSE_Z0_MEAS,7.4%)
   sys(FT_EFF_TRK_FAKE_RATE,21.3%)
   sys(FT_EFF_JET_GroupedNP_11up,0.0%)
   sys(FT_EFF_TRK_EFF_LOOSE_PHYSMODEL,1.9%)
   sys(FT_EFF_JET_GroupedNP_31down,1.4%)
   sys(FT_EFF_TRK_BIAS_D0_WM,2.8%)
   sys(FT_EFF_JET_Angular,3.7%)
} 
} 
 
 
 
