Analysis(Run2MCcalib,light,DL1mu,FixedCutBEff_60,AntiKt4EMTopoJets){
bin(0<pt<50,0<abseta<2.5)
{ 
   central_value(1.0,0.0255)
   sys(FT_EFF_TRK_SAGITTA_WM,0.6%)
   sys(FT_EFF_JER1up,0.4%)
   sys(FT_EFF_JET_GroupedNP_31up,0.3%)
   sys(FT_EFF_TRK_EFF_LOOSE_PP0,0.2%)
   sys(FT_EFF_TRK_RES_D0_DEAD,0.6%)
   sys(FT_EFF_TRK_RES_Z0_DEAD,0.4%)
   sys(FT_EFF_JET_GroupedNP_21up,0.6%)
   sys(FT_EFF_TRK_EFF_LOOSE_IBL,0.7%)
   sys(FT_EFF_TRK_BIAS_Z0_WM,0.8%)
   sys(FT_EFF_TRK_EFF_LOOSE_GLOBAL,0.8%)
   sys(FT_EFF_TRK_RES_LOOSE_D0_MEAS,15.5%)
   sys(FT_EFF_JET_GroupedNP_11down,7.5%)
   sys(FT_EFF_JET_GroupedNP_21down,2.0%)
   sys(FT_EFF_TRK_EFF_LOOSE_TIDE,0.8%)
   sys(FT_EFF_TRK_RES_LOOSE_Z0_MEAS,17.4%)
   sys(FT_EFF_TRK_FAKE_RATE,1.9%)
   sys(FT_EFF_JET_GroupedNP_11up,4.9%)
   sys(FT_EFF_TRK_EFF_LOOSE_PHYSMODEL,0.3%)
   sys(FT_EFF_JET_GroupedNP_31down,1.0%)
   sys(FT_EFF_TRK_BIAS_D0_WM,1.1%)
   sys(FT_EFF_JET_Angular,1.0%)
} 
bin(50<pt<100,0<abseta<2.5)
{ 
   central_value(1.0,0.0255)
   sys(FT_EFF_TRK_SAGITTA_WM,0.4%)
   sys(FT_EFF_JER1up,0.3%)
   sys(FT_EFF_JET_GroupedNP_31up,0.4%)
   sys(FT_EFF_TRK_EFF_LOOSE_PP0,1.3%)
   sys(FT_EFF_TRK_RES_D0_DEAD,1.1%)
   sys(FT_EFF_TRK_RES_Z0_DEAD,0.6%)
   sys(FT_EFF_JET_GroupedNP_21up,0.3%)
   sys(FT_EFF_TRK_EFF_LOOSE_IBL,1.0%)
   sys(FT_EFF_TRK_BIAS_Z0_WM,1.7%)
   sys(FT_EFF_TRK_EFF_LOOSE_GLOBAL,1.0%)
   sys(FT_EFF_TRK_RES_LOOSE_D0_MEAS,15.6%)
   sys(FT_EFF_JET_GroupedNP_11down,0.6%)
   sys(FT_EFF_JET_GroupedNP_21down,0.5%)
   sys(FT_EFF_TRK_EFF_LOOSE_TIDE,0.4%)
   sys(FT_EFF_TRK_RES_LOOSE_Z0_MEAS,24.3%)
   sys(FT_EFF_TRK_FAKE_RATE,3.1%)
   sys(FT_EFF_JET_GroupedNP_11up,0.3%)
   sys(FT_EFF_TRK_EFF_LOOSE_PHYSMODEL,0.2%)
   sys(FT_EFF_JET_GroupedNP_31down,0.4%)
   sys(FT_EFF_TRK_BIAS_D0_WM,1.5%)
   sys(FT_EFF_JET_Angular,0.6%)
} 
bin(100<pt<150,0<abseta<2.5)
{ 
   central_value(1.0,0.0255)
   sys(FT_EFF_TRK_SAGITTA_WM,2.0%)
   sys(FT_EFF_JER1up,0.0%)
   sys(FT_EFF_JET_GroupedNP_31up,0.1%)
   sys(FT_EFF_TRK_EFF_LOOSE_PP0,2.4%)
   sys(FT_EFF_TRK_RES_D0_DEAD,1.8%)
   sys(FT_EFF_TRK_RES_Z0_DEAD,1.5%)
   sys(FT_EFF_JET_GroupedNP_21up,0.4%)
   sys(FT_EFF_TRK_EFF_LOOSE_IBL,1.8%)
   sys(FT_EFF_TRK_BIAS_Z0_WM,4.5%)
   sys(FT_EFF_TRK_EFF_LOOSE_GLOBAL,1.9%)
   sys(FT_EFF_TRK_RES_LOOSE_D0_MEAS,9.0%)
   sys(FT_EFF_JET_GroupedNP_11down,0.1%)
   sys(FT_EFF_JET_GroupedNP_21down,0.1%)
   sys(FT_EFF_TRK_EFF_LOOSE_TIDE,1.4%)
   sys(FT_EFF_TRK_RES_LOOSE_Z0_MEAS,18.1%)
   sys(FT_EFF_TRK_FAKE_RATE,4.4%)
   sys(FT_EFF_JET_GroupedNP_11up,0.2%)
   sys(FT_EFF_TRK_EFF_LOOSE_PHYSMODEL,1.6%)
   sys(FT_EFF_JET_GroupedNP_31down,0.2%)
   sys(FT_EFF_TRK_BIAS_D0_WM,1.1%)
   sys(FT_EFF_JET_Angular,0.9%)
} 
bin(150<pt<200,0<abseta<2.5)
{ 
   central_value(1.0,0.0255)
   sys(FT_EFF_TRK_SAGITTA_WM,4.0%)
   sys(FT_EFF_JER1up,3.3%)
   sys(FT_EFF_JET_GroupedNP_31up,2.9%)
   sys(FT_EFF_TRK_EFF_LOOSE_PP0,1.2%)
   sys(FT_EFF_TRK_RES_D0_DEAD,2.9%)
   sys(FT_EFF_TRK_RES_Z0_DEAD,2.9%)
   sys(FT_EFF_JET_GroupedNP_21up,2.5%)
   sys(FT_EFF_TRK_EFF_LOOSE_IBL,1.4%)
   sys(FT_EFF_TRK_BIAS_Z0_WM,6.2%)
   sys(FT_EFF_TRK_EFF_LOOSE_GLOBAL,1.7%)
   sys(FT_EFF_TRK_RES_LOOSE_D0_MEAS,10.9%)
   sys(FT_EFF_JET_GroupedNP_11down,2.1%)
   sys(FT_EFF_JET_GroupedNP_21down,2.5%)
   sys(FT_EFF_TRK_EFF_LOOSE_TIDE,0.6%)
   sys(FT_EFF_TRK_RES_LOOSE_Z0_MEAS,16.8%)
   sys(FT_EFF_TRK_FAKE_RATE,1.2%)
   sys(FT_EFF_JET_GroupedNP_11up,3.5%)
   sys(FT_EFF_TRK_EFF_LOOSE_PHYSMODEL,0.6%)
   sys(FT_EFF_JET_GroupedNP_31down,2.1%)
   sys(FT_EFF_TRK_BIAS_D0_WM,4.2%)
   sys(FT_EFF_JET_Angular,4.8%)
} 
bin(200<pt<300,0<abseta<2.5)
{ 
   central_value(1.0,0.0255)
   sys(FT_EFF_TRK_SAGITTA_WM,0.9%)
   sys(FT_EFF_JER1up,0.4%)
   sys(FT_EFF_JET_GroupedNP_31up,1.9%)
   sys(FT_EFF_TRK_EFF_LOOSE_PP0,0.0%)
   sys(FT_EFF_TRK_RES_D0_DEAD,1.0%)
   sys(FT_EFF_TRK_RES_Z0_DEAD,0.3%)
   sys(FT_EFF_JET_GroupedNP_21up,0.6%)
   sys(FT_EFF_TRK_EFF_LOOSE_IBL,1.2%)
   sys(FT_EFF_TRK_BIAS_Z0_WM,1.7%)
   sys(FT_EFF_TRK_EFF_LOOSE_GLOBAL,1.2%)
   sys(FT_EFF_TRK_RES_LOOSE_D0_MEAS,3.9%)
   sys(FT_EFF_JET_GroupedNP_11down,1.3%)
   sys(FT_EFF_JET_GroupedNP_21down,0.3%)
   sys(FT_EFF_TRK_EFF_LOOSE_TIDE,0.2%)
   sys(FT_EFF_TRK_RES_LOOSE_Z0_MEAS,12.4%)
   sys(FT_EFF_TRK_FAKE_RATE,4.5%)
   sys(FT_EFF_JET_GroupedNP_11up,0.0%)
   sys(FT_EFF_TRK_EFF_LOOSE_PHYSMODEL,0.0%)
   sys(FT_EFF_JET_GroupedNP_31down,0.9%)
   sys(FT_EFF_TRK_BIAS_D0_WM,1.6%)
   sys(FT_EFF_JET_Angular,2.0%)
} 
bin(300<pt<500,0<abseta<2.5)
{ 
   central_value(1.0,0.0255)
   sys(FT_EFF_TRK_SAGITTA_WM,5.5%)
   sys(FT_EFF_JER1up,0.3%)
   sys(FT_EFF_JET_GroupedNP_31up,1.4%)
   sys(FT_EFF_TRK_EFF_LOOSE_PP0,1.6%)
   sys(FT_EFF_TRK_RES_D0_DEAD,7.6%)
   sys(FT_EFF_TRK_RES_Z0_DEAD,3.0%)
   sys(FT_EFF_JET_GroupedNP_21up,1.7%)
   sys(FT_EFF_TRK_EFF_LOOSE_IBL,2.4%)
   sys(FT_EFF_TRK_BIAS_Z0_WM,7.0%)
   sys(FT_EFF_TRK_EFF_LOOSE_GLOBAL,0.6%)
   sys(FT_EFF_TRK_RES_LOOSE_D0_MEAS,15.3%)
   sys(FT_EFF_JET_GroupedNP_11down,4.0%)
   sys(FT_EFF_JET_GroupedNP_21down,4.8%)
   sys(FT_EFF_TRK_EFF_LOOSE_TIDE,0.3%)
   sys(FT_EFF_TRK_RES_LOOSE_Z0_MEAS,13.5%)
   sys(FT_EFF_TRK_FAKE_RATE,6.6%)
   sys(FT_EFF_JET_GroupedNP_11up,2.4%)
   sys(FT_EFF_TRK_EFF_LOOSE_PHYSMODEL,1.8%)
   sys(FT_EFF_JET_GroupedNP_31down,3.6%)
   sys(FT_EFF_TRK_BIAS_D0_WM,6.7%)
   sys(FT_EFF_JET_Angular,9.5%)
} 
bin(500<pt<800,0<abseta<2.5)
{ 
   central_value(1.0,0.0255)
   sys(FT_EFF_TRK_SAGITTA_WM,5.1%)
   sys(FT_EFF_JER1up,15.0%)
   sys(FT_EFF_JET_GroupedNP_31up,13.0%)
   sys(FT_EFF_TRK_EFF_LOOSE_PP0,12.9%)
   sys(FT_EFF_TRK_RES_D0_DEAD,20.7%)
   sys(FT_EFF_TRK_RES_Z0_DEAD,20.9%)
   sys(FT_EFF_JET_GroupedNP_21up,14.0%)
   sys(FT_EFF_TRK_EFF_LOOSE_IBL,10.7%)
   sys(FT_EFF_TRK_BIAS_Z0_WM,17.9%)
   sys(FT_EFF_TRK_EFF_LOOSE_GLOBAL,11.7%)
   sys(FT_EFF_TRK_RES_LOOSE_D0_MEAS,39.7%)
   sys(FT_EFF_JET_GroupedNP_11down,9.7%)
   sys(FT_EFF_JET_GroupedNP_21down,13.6%)
   sys(FT_EFF_TRK_EFF_LOOSE_TIDE,11.1%)
   sys(FT_EFF_TRK_RES_LOOSE_Z0_MEAS,32.7%)
   sys(FT_EFF_TRK_FAKE_RATE,15.7%)
   sys(FT_EFF_JET_GroupedNP_11up,9.9%)
   sys(FT_EFF_TRK_EFF_LOOSE_PHYSMODEL,2.6%)
   sys(FT_EFF_JET_GroupedNP_31down,14.7%)
   sys(FT_EFF_TRK_BIAS_D0_WM,29.5%)
   sys(FT_EFF_JET_Angular,28.0%)
} 
bin(800<pt<1200,0<abseta<2.5)
{ 
   central_value(1.0,0.0255)
   sys(FT_EFF_TRK_SAGITTA_WM,21.6%)
   sys(FT_EFF_JER1up,4.3%)
   sys(FT_EFF_JET_GroupedNP_31up,13.0%)
   sys(FT_EFF_TRK_EFF_LOOSE_PP0,31.6%)
   sys(FT_EFF_TRK_RES_D0_DEAD,19.8%)
   sys(FT_EFF_TRK_RES_Z0_DEAD,25.2%)
   sys(FT_EFF_JET_GroupedNP_21up,1.4%)
   sys(FT_EFF_TRK_EFF_LOOSE_IBL,6.6%)
   sys(FT_EFF_TRK_BIAS_Z0_WM,26.8%)
   sys(FT_EFF_TRK_EFF_LOOSE_GLOBAL,2.9%)
   sys(FT_EFF_TRK_RES_LOOSE_D0_MEAS,40.3%)
   sys(FT_EFF_JET_GroupedNP_11down,6.6%)
   sys(FT_EFF_JET_GroupedNP_21down,15.5%)
   sys(FT_EFF_TRK_EFF_LOOSE_TIDE,6.9%)
   sys(FT_EFF_TRK_RES_LOOSE_Z0_MEAS,37.3%)
   sys(FT_EFF_TRK_FAKE_RATE,6.5%)
   sys(FT_EFF_JET_GroupedNP_11up,28.4%)
   sys(FT_EFF_TRK_EFF_LOOSE_PHYSMODEL,3.3%)
   sys(FT_EFF_JET_GroupedNP_31down,5.2%)
   sys(FT_EFF_TRK_BIAS_D0_WM,62.0%)
   sys(FT_EFF_JET_Angular,35.7%)
} 
bin(1200<pt<2000,0<abseta<2.5)
{ 
   central_value(1.0,0.0255)
   sys(FT_EFF_TRK_SAGITTA_WM,10.0%)
   sys(FT_EFF_JER1up,6.0%)
   sys(FT_EFF_JET_GroupedNP_31up,6.7%)
   sys(FT_EFF_TRK_EFF_LOOSE_PP0,31.0%)
   sys(FT_EFF_TRK_RES_D0_DEAD,8.2%)
   sys(FT_EFF_TRK_RES_Z0_DEAD,7.2%)
   sys(FT_EFF_JET_GroupedNP_21up,1.3%)
   sys(FT_EFF_TRK_EFF_LOOSE_IBL,8.2%)
   sys(FT_EFF_TRK_BIAS_Z0_WM,3.3%)
   sys(FT_EFF_TRK_EFF_LOOSE_GLOBAL,4.9%)
   sys(FT_EFF_TRK_RES_LOOSE_D0_MEAS,5.7%)
   sys(FT_EFF_JET_GroupedNP_11down,5.2%)
   sys(FT_EFF_JET_GroupedNP_21down,11.5%)
   sys(FT_EFF_TRK_EFF_LOOSE_TIDE,9.3%)
   sys(FT_EFF_TRK_RES_LOOSE_Z0_MEAS,42.8%)
   sys(FT_EFF_TRK_FAKE_RATE,48.7%)
   sys(FT_EFF_JET_GroupedNP_11up,16.4%)
   sys(FT_EFF_TRK_EFF_LOOSE_PHYSMODEL,16.4%)
   sys(FT_EFF_JET_GroupedNP_31down,5.9%)
   sys(FT_EFF_TRK_BIAS_D0_WM,1.5%)
   sys(FT_EFF_JET_Angular,7.8%)
} 
} 
 
 
 
