Analysis(Run2MCcalib_ttC,charm,MV2c10mu,HybBEff_77,AntiKt4EMTopoJets){
bin(65<pt<140,0<abseta<2.5)
{ 
   central_value(1.0,0.0255)
   sys(FT_EFF_TRK_SAGITTA_WM,0.2%)
   sys(FT_EFF_JER1up,0.0%)
   sys(FT_EFF_TRK_EFF_LOOSE_PP0,0.4%)
   sys(FT_EFF_TRK_RES_D0_DEAD,0.3%)
   sys(FT_EFF_TRK_RES_Z0_DEAD,0.2%)
   sys(FT_EFF_JET_GroupedNP_21down,0.3%)
   sys(FT_EFF_TRK_BIAS_Z0_WM,0.5%)
   sys(FT_EFF_JET_GroupedNP_31up,0.0%)
   sys(FT_EFF_TRK_EFF_LOOSE_GLOBAL,0.3%)
   sys(FT_EFF_TRK_RES_LOOSE_D0_MEAS,4.6%)
   sys(FT_EFF_TRK_EFF_LOOSE_IBL,0.5%)
   sys(FT_EFF_JET_GroupedNP_11down,0.5%)
   sys(FT_EFF_JET_GroupedNP_21up,0.1%)
   sys(FT_EFF_TRK_EFF_LOOSE_TIDE,0.3%)
   sys(FT_EFF_TRK_RES_LOOSE_Z0_MEAS,7.4%)
   sys(FT_EFF_TRK_FAKE_RATE,2.1%)
   sys(FT_EFF_JET_GroupedNP_11up,0.4%)
   sys(FT_EFF_TRK_EFF_LOOSE_PHYSMODEL,0.2%)
   sys(FT_EFF_JET_GroupedNP_31down,0.2%)
   sys(FT_EFF_TRK_BIAS_D0_WM,0.2%)
   sys(FT_EFF_JET_Angular,0.3%)
} 
bin(140<pt<300,0<abseta<2.5)
{ 
   central_value(1.0,0.0255)
   sys(FT_EFF_TRK_SAGITTA_WM,0.4%)
   sys(FT_EFF_JER1up,0.3%)
   sys(FT_EFF_TRK_EFF_LOOSE_PP0,0.3%)
   sys(FT_EFF_TRK_RES_D0_DEAD,0.2%)
   sys(FT_EFF_TRK_RES_Z0_DEAD,0.2%)
   sys(FT_EFF_JET_GroupedNP_21down,0.2%)
   sys(FT_EFF_TRK_BIAS_Z0_WM,0.9%)
   sys(FT_EFF_JET_GroupedNP_31up,0.3%)
   sys(FT_EFF_TRK_EFF_LOOSE_GLOBAL,0.0%)
   sys(FT_EFF_TRK_RES_LOOSE_D0_MEAS,4.3%)
   sys(FT_EFF_TRK_EFF_LOOSE_IBL,0.3%)
   sys(FT_EFF_JET_GroupedNP_11down,0.3%)
   sys(FT_EFF_JET_GroupedNP_21up,0.4%)
   sys(FT_EFF_TRK_EFF_LOOSE_TIDE,0.0%)
   sys(FT_EFF_TRK_RES_LOOSE_Z0_MEAS,5.4%)
   sys(FT_EFF_TRK_FAKE_RATE,2.3%)
   sys(FT_EFF_JET_GroupedNP_11up,0.5%)
   sys(FT_EFF_TRK_EFF_LOOSE_PHYSMODEL,0.6%)
   sys(FT_EFF_JET_GroupedNP_31down,0.2%)
   sys(FT_EFF_TRK_BIAS_D0_WM,0.4%)
   sys(FT_EFF_JET_Angular,1.7%)
} 
bin(300<pt<500,0<abseta<2.5)
{ 
   central_value(1.0,0.0255)
   sys(FT_EFF_TRK_SAGITTA_WM,0.9%)
   sys(FT_EFF_JER1up,0.1%)
   sys(FT_EFF_TRK_EFF_LOOSE_PP0,0.8%)
   sys(FT_EFF_TRK_RES_D0_DEAD,0.2%)
   sys(FT_EFF_TRK_RES_Z0_DEAD,0.2%)
   sys(FT_EFF_JET_GroupedNP_21down,0.9%)
   sys(FT_EFF_TRK_BIAS_Z0_WM,0.4%)
   sys(FT_EFF_JET_GroupedNP_31up,0.6%)
   sys(FT_EFF_TRK_EFF_LOOSE_GLOBAL,0.2%)
   sys(FT_EFF_TRK_RES_LOOSE_D0_MEAS,5.7%)
   sys(FT_EFF_TRK_EFF_LOOSE_IBL,0.4%)
   sys(FT_EFF_JET_GroupedNP_11down,0.9%)
   sys(FT_EFF_JET_GroupedNP_21up,0.2%)
   sys(FT_EFF_TRK_EFF_LOOSE_TIDE,0.6%)
   sys(FT_EFF_TRK_RES_LOOSE_Z0_MEAS,5.4%)
   sys(FT_EFF_TRK_FAKE_RATE,3.0%)
   sys(FT_EFF_JET_GroupedNP_11up,0.3%)
   sys(FT_EFF_TRK_EFF_LOOSE_PHYSMODEL,0.3%)
   sys(FT_EFF_JET_GroupedNP_31down,0.8%)
   sys(FT_EFF_TRK_BIAS_D0_WM,1.2%)
   sys(FT_EFF_JET_Angular,1.9%)
} 
bin(500<pt<800,0<abseta<2.5)
{ 
   central_value(1.0,0.0255)
   sys(FT_EFF_TRK_SAGITTA_WM,1.6%)
   sys(FT_EFF_JER1up,1.2%)
   sys(FT_EFF_TRK_EFF_LOOSE_PP0,1.0%)
   sys(FT_EFF_TRK_RES_D0_DEAD,1.7%)
   sys(FT_EFF_TRK_RES_Z0_DEAD,1.1%)
   sys(FT_EFF_JET_GroupedNP_21down,0.5%)
   sys(FT_EFF_TRK_BIAS_Z0_WM,2.3%)
   sys(FT_EFF_JET_GroupedNP_31up,0.0%)
   sys(FT_EFF_TRK_EFF_LOOSE_GLOBAL,0.0%)
   sys(FT_EFF_TRK_RES_LOOSE_D0_MEAS,5.0%)
   sys(FT_EFF_TRK_EFF_LOOSE_IBL,0.6%)
   sys(FT_EFF_JET_GroupedNP_11down,1.0%)
   sys(FT_EFF_JET_GroupedNP_21up,0.7%)
   sys(FT_EFF_TRK_EFF_LOOSE_TIDE,0.2%)
   sys(FT_EFF_TRK_RES_LOOSE_Z0_MEAS,4.0%)
   sys(FT_EFF_TRK_FAKE_RATE,3.0%)
   sys(FT_EFF_JET_GroupedNP_11up,0.7%)
   sys(FT_EFF_TRK_EFF_LOOSE_PHYSMODEL,0.5%)
   sys(FT_EFF_JET_GroupedNP_31down,1.0%)
   sys(FT_EFF_TRK_BIAS_D0_WM,0.1%)
   sys(FT_EFF_JET_Angular,1.5%)
} 
bin(800<pt<1200,0<abseta<2.5)
{ 
   central_value(1.0,0.0255)
   sys(FT_EFF_TRK_SAGITTA_WM,3.2%)
   sys(FT_EFF_JER1up,4.2%)
   sys(FT_EFF_TRK_EFF_LOOSE_PP0,5.8%)
   sys(FT_EFF_TRK_RES_D0_DEAD,3.3%)
   sys(FT_EFF_TRK_RES_Z0_DEAD,0.8%)
   sys(FT_EFF_JET_GroupedNP_21down,0.4%)
   sys(FT_EFF_TRK_BIAS_Z0_WM,2.7%)
   sys(FT_EFF_JET_GroupedNP_31up,4.2%)
   sys(FT_EFF_TRK_EFF_LOOSE_GLOBAL,5.2%)
   sys(FT_EFF_TRK_RES_LOOSE_D0_MEAS,6.4%)
   sys(FT_EFF_TRK_EFF_LOOSE_IBL,4.0%)
   sys(FT_EFF_JET_GroupedNP_11down,2.2%)
   sys(FT_EFF_JET_GroupedNP_21up,1.2%)
   sys(FT_EFF_TRK_EFF_LOOSE_TIDE,4.0%)
   sys(FT_EFF_TRK_RES_LOOSE_Z0_MEAS,7.3%)
   sys(FT_EFF_TRK_FAKE_RATE,7.5%)
   sys(FT_EFF_JET_GroupedNP_11up,4.9%)
   sys(FT_EFF_TRK_EFF_LOOSE_PHYSMODEL,4.2%)
   sys(FT_EFF_JET_GroupedNP_31down,0.3%)
   sys(FT_EFF_TRK_BIAS_D0_WM,4.5%)
   sys(FT_EFF_JET_Angular,5.2%)
} 
bin(1200<pt<2000,0<abseta<2.5)
{ 
   central_value(1.0,0.0255)
   sys(FT_EFF_TRK_SAGITTA_WM,12.1%)
   sys(FT_EFF_JER1up,11.0%)
   sys(FT_EFF_TRK_EFF_LOOSE_PP0,7.2%)
   sys(FT_EFF_TRK_RES_D0_DEAD,20.6%)
   sys(FT_EFF_TRK_RES_Z0_DEAD,20.3%)
   sys(FT_EFF_JET_GroupedNP_21down,3.6%)
   sys(FT_EFF_TRK_BIAS_Z0_WM,7.6%)
   sys(FT_EFF_JET_GroupedNP_31up,11.6%)
   sys(FT_EFF_TRK_EFF_LOOSE_GLOBAL,15.0%)
   sys(FT_EFF_TRK_RES_LOOSE_D0_MEAS,9.6%)
   sys(FT_EFF_TRK_EFF_LOOSE_IBL,11.7%)
   sys(FT_EFF_JET_GroupedNP_11down,3.3%)
   sys(FT_EFF_JET_GroupedNP_21up,3.3%)
   sys(FT_EFF_TRK_EFF_LOOSE_TIDE,11.7%)
   sys(FT_EFF_TRK_RES_LOOSE_Z0_MEAS,4.9%)
   sys(FT_EFF_TRK_FAKE_RATE,49.0%)
   sys(FT_EFF_JET_GroupedNP_11up,16.6%)
   sys(FT_EFF_TRK_EFF_LOOSE_PHYSMODEL,5.2%)
   sys(FT_EFF_JET_GroupedNP_31down,5.9%)
   sys(FT_EFF_TRK_BIAS_D0_WM,24.4%)
   sys(FT_EFF_JET_Angular,9.2%)
} 
} 
 
 
