Analysis(Run2MCcalib_ttC,tau,DL1mu,FixedCutBEff_60,AntiKt4EMTopoJets){
bin(65<pt<140,0<abseta<2.5)
{ 
   central_value(1.0,0.0255)
   sys(FT_EFF_TRK_SAGITTA_WM,0.7%)
   sys(FT_EFF_JER1up,0.1%)
   sys(FT_EFF_JET_GroupedNP_31up,0.4%)
   sys(FT_EFF_TRK_EFF_LOOSE_PP0,1.2%)
   sys(FT_EFF_TRK_RES_D0_DEAD,1.0%)
   sys(FT_EFF_TRK_RES_Z0_DEAD,0.7%)
   sys(FT_EFF_JET_GroupedNP_21up,0.1%)
   sys(FT_EFF_TRK_EFF_LOOSE_IBL,1.2%)
   sys(FT_EFF_TRK_BIAS_Z0_WM,0.3%)
   sys(FT_EFF_TRK_EFF_LOOSE_GLOBAL,1.1%)
   sys(FT_EFF_TRK_RES_LOOSE_D0_MEAS,5.9%)
   sys(FT_EFF_JET_GroupedNP_11down,0.8%)
   sys(FT_EFF_JET_GroupedNP_21down,0.7%)
   sys(FT_EFF_TRK_EFF_LOOSE_TIDE,0.9%)
   sys(FT_EFF_TRK_RES_LOOSE_Z0_MEAS,12.4%)
   sys(FT_EFF_TRK_FAKE_RATE,4.4%)
   sys(FT_EFF_JET_GroupedNP_11up,0.1%)
   sys(FT_EFF_TRK_EFF_LOOSE_PHYSMODEL,0.5%)
   sys(FT_EFF_JET_GroupedNP_31down,0.4%)
   sys(FT_EFF_TRK_BIAS_D0_WM,1.2%)
   sys(FT_EFF_JET_Angular,0.4%)
} 
bin(140<pt<300,0<abseta<2.5)
{ 
   central_value(1.0,0.0255)
   sys(FT_EFF_TRK_SAGITTA_WM,0.2%)
   sys(FT_EFF_JER1up,0.6%)
   sys(FT_EFF_JET_GroupedNP_31up,0.8%)
   sys(FT_EFF_TRK_EFF_LOOSE_PP0,1.3%)
   sys(FT_EFF_TRK_RES_D0_DEAD,1.0%)
   sys(FT_EFF_TRK_RES_Z0_DEAD,0.1%)
   sys(FT_EFF_JET_GroupedNP_21up,0.5%)
   sys(FT_EFF_TRK_EFF_LOOSE_IBL,1.4%)
   sys(FT_EFF_TRK_BIAS_Z0_WM,0.1%)
   sys(FT_EFF_TRK_EFF_LOOSE_GLOBAL,1.3%)
   sys(FT_EFF_TRK_RES_LOOSE_D0_MEAS,4.2%)
   sys(FT_EFF_JET_GroupedNP_11down,1.2%)
   sys(FT_EFF_JET_GroupedNP_21down,0.9%)
   sys(FT_EFF_TRK_EFF_LOOSE_TIDE,1.2%)
   sys(FT_EFF_TRK_RES_LOOSE_Z0_MEAS,7.5%)
   sys(FT_EFF_TRK_FAKE_RATE,4.9%)
   sys(FT_EFF_JET_GroupedNP_11up,1.5%)
   sys(FT_EFF_TRK_EFF_LOOSE_PHYSMODEL,1.4%)
   sys(FT_EFF_JET_GroupedNP_31down,0.3%)
   sys(FT_EFF_TRK_BIAS_D0_WM,0.1%)
   sys(FT_EFF_JET_Angular,1.8%)
} 
bin(300<pt<500,0<abseta<2.5)
{ 
   central_value(1.0,0.0255)
   sys(FT_EFF_TRK_SAGITTA_WM,1.1%)
   sys(FT_EFF_JER1up,1.0%)
   sys(FT_EFF_JET_GroupedNP_31up,2.0%)
   sys(FT_EFF_TRK_EFF_LOOSE_PP0,0.0%)
   sys(FT_EFF_TRK_RES_D0_DEAD,2.7%)
   sys(FT_EFF_TRK_RES_Z0_DEAD,0.5%)
   sys(FT_EFF_JET_GroupedNP_21up,1.5%)
   sys(FT_EFF_TRK_EFF_LOOSE_IBL,0.9%)
   sys(FT_EFF_TRK_BIAS_Z0_WM,0.9%)
   sys(FT_EFF_TRK_EFF_LOOSE_GLOBAL,1.0%)
   sys(FT_EFF_TRK_RES_LOOSE_D0_MEAS,4.2%)
   sys(FT_EFF_JET_GroupedNP_11down,1.4%)
   sys(FT_EFF_JET_GroupedNP_21down,3.0%)
   sys(FT_EFF_TRK_EFF_LOOSE_TIDE,0.4%)
   sys(FT_EFF_TRK_RES_LOOSE_Z0_MEAS,7.5%)
   sys(FT_EFF_TRK_FAKE_RATE,5.7%)
   sys(FT_EFF_JET_GroupedNP_11up,1.8%)
   sys(FT_EFF_TRK_EFF_LOOSE_PHYSMODEL,0.6%)
   sys(FT_EFF_JET_GroupedNP_31down,1.6%)
   sys(FT_EFF_TRK_BIAS_D0_WM,2.3%)
   sys(FT_EFF_JET_Angular,2.9%)
} 
bin(500<pt<800,0<abseta<2.5)
{ 
   central_value(1.0,0.0255)
   sys(FT_EFF_TRK_SAGITTA_WM,4.9%)
   sys(FT_EFF_JER1up,0.1%)
   sys(FT_EFF_JET_GroupedNP_31up,2.3%)
   sys(FT_EFF_TRK_EFF_LOOSE_PP0,3.5%)
   sys(FT_EFF_TRK_RES_D0_DEAD,9.4%)
   sys(FT_EFF_TRK_RES_Z0_DEAD,0.7%)
   sys(FT_EFF_JET_GroupedNP_21up,4.0%)
   sys(FT_EFF_TRK_EFF_LOOSE_IBL,1.5%)
   sys(FT_EFF_TRK_BIAS_Z0_WM,5.3%)
   sys(FT_EFF_TRK_EFF_LOOSE_GLOBAL,0.6%)
   sys(FT_EFF_TRK_RES_LOOSE_D0_MEAS,8.4%)
   sys(FT_EFF_JET_GroupedNP_11down,3.0%)
   sys(FT_EFF_JET_GroupedNP_21down,3.9%)
   sys(FT_EFF_TRK_EFF_LOOSE_TIDE,0.0%)
   sys(FT_EFF_TRK_RES_LOOSE_Z0_MEAS,9.3%)
   sys(FT_EFF_TRK_FAKE_RATE,1.6%)
   sys(FT_EFF_JET_GroupedNP_11up,2.8%)
   sys(FT_EFF_TRK_EFF_LOOSE_PHYSMODEL,1.3%)
   sys(FT_EFF_JET_GroupedNP_31down,3.4%)
   sys(FT_EFF_TRK_BIAS_D0_WM,1.5%)
   sys(FT_EFF_JET_Angular,4.3%)
} 
bin(800<pt<1200,0<abseta<2.5)
{ 
   central_value(1.0,0.0255)
   sys(FT_EFF_TRK_SAGITTA_WM,0.5%)
   sys(FT_EFF_JER1up,2.6%)
   sys(FT_EFF_JET_GroupedNP_31up,7.4%)
   sys(FT_EFF_TRK_EFF_LOOSE_PP0,23.1%)
   sys(FT_EFF_TRK_RES_D0_DEAD,14.4%)
   sys(FT_EFF_TRK_RES_Z0_DEAD,18.3%)
   sys(FT_EFF_JET_GroupedNP_21up,3.2%)
   sys(FT_EFF_TRK_EFF_LOOSE_IBL,14.3%)
   sys(FT_EFF_TRK_BIAS_Z0_WM,3.1%)
   sys(FT_EFF_TRK_EFF_LOOSE_GLOBAL,23.0%)
   sys(FT_EFF_TRK_RES_LOOSE_D0_MEAS,16.4%)
   sys(FT_EFF_JET_GroupedNP_11down,4.5%)
   sys(FT_EFF_JET_GroupedNP_21down,3.9%)
   sys(FT_EFF_TRK_EFF_LOOSE_TIDE,13.5%)
   sys(FT_EFF_TRK_RES_LOOSE_Z0_MEAS,8.0%)
   sys(FT_EFF_TRK_FAKE_RATE,44.5%)
   sys(FT_EFF_JET_GroupedNP_11up,16.5%)
   sys(FT_EFF_TRK_EFF_LOOSE_PHYSMODEL,15.1%)
   sys(FT_EFF_JET_GroupedNP_31down,5.2%)
   sys(FT_EFF_TRK_BIAS_D0_WM,8.9%)
   sys(FT_EFF_JET_Angular,16.2%)
} 
bin(1200<pt<2000,0<abseta<2.5)
{ 
   central_value(1.0,0.0255)
   sys(FT_EFF_TRK_SAGITTA_WM,42.8%)
   sys(FT_EFF_JER1up,22.8%)
   sys(FT_EFF_JET_GroupedNP_31up,17.9%)
   sys(FT_EFF_TRK_EFF_LOOSE_PP0,50.8%)
   sys(FT_EFF_TRK_RES_D0_DEAD,42.6%)
   sys(FT_EFF_TRK_RES_Z0_DEAD,100.0%)
   sys(FT_EFF_JET_GroupedNP_21up,25.4%)
   sys(FT_EFF_TRK_EFF_LOOSE_IBL,42.6%)
   sys(FT_EFF_TRK_BIAS_Z0_WM,9.1%)
   sys(FT_EFF_TRK_EFF_LOOSE_GLOBAL,44.8%)
   sys(FT_EFF_TRK_RES_LOOSE_D0_MEAS,16.1%)
   sys(FT_EFF_JET_GroupedNP_11down,25.4%)
   sys(FT_EFF_JET_GroupedNP_21down,10.5%)
   sys(FT_EFF_TRK_EFF_LOOSE_TIDE,42.6%)
   sys(FT_EFF_TRK_RES_LOOSE_Z0_MEAS,47.2%)
   sys(FT_EFF_TRK_FAKE_RATE,17.1%)
   sys(FT_EFF_JET_GroupedNP_11up,54.8%)
   sys(FT_EFF_TRK_EFF_LOOSE_PHYSMODEL,35.1%)
   sys(FT_EFF_JET_GroupedNP_31down,23.5%)
   sys(FT_EFF_TRK_BIAS_D0_WM,45.4%)
   sys(FT_EFF_JET_Angular,47.5%)
} 
} 
 
 
