Analysis(Run2MCcalib_ttC,tau,MV2c10rnn,HybBEff_85,AntiKt4EMTopoJets){
bin(65<pt<140,0<abseta<2.5)
{ 
   central_value(1.0,0.0255)
   sys(FT_EFF_TRK_SAGITTA_WM,0.1%)
   sys(FT_EFF_JER1up,0.0%)
   sys(FT_EFF_TRK_EFF_LOOSE_PP0,0.2%)
   sys(FT_EFF_TRK_RES_D0_DEAD,0.0%)
   sys(FT_EFF_TRK_RES_Z0_DEAD,0.0%)
   sys(FT_EFF_JET_GroupedNP_21down,0.2%)
   sys(FT_EFF_TRK_BIAS_Z0_WM,0.4%)
   sys(FT_EFF_JET_GroupedNP_31up,0.1%)
   sys(FT_EFF_TRK_EFF_LOOSE_GLOBAL,0.2%)
   sys(FT_EFF_TRK_RES_LOOSE_D0_MEAS,3.8%)
   sys(FT_EFF_TRK_EFF_LOOSE_IBL,0.2%)
   sys(FT_EFF_JET_GroupedNP_11down,0.3%)
   sys(FT_EFF_JET_GroupedNP_21up,0.1%)
   sys(FT_EFF_TRK_EFF_LOOSE_TIDE,0.1%)
   sys(FT_EFF_TRK_RES_LOOSE_Z0_MEAS,4.8%)
   sys(FT_EFF_TRK_FAKE_RATE,1.3%)
   sys(FT_EFF_JET_GroupedNP_11up,0.2%)
   sys(FT_EFF_TRK_EFF_LOOSE_PHYSMODEL,0.2%)
   sys(FT_EFF_JET_GroupedNP_31down,0.0%)
   sys(FT_EFF_TRK_BIAS_D0_WM,0.0%)
   sys(FT_EFF_JET_Angular,0.2%)
} 
bin(140<pt<300,0<abseta<2.5)
{ 
   central_value(1.0,0.0255)
   sys(FT_EFF_TRK_SAGITTA_WM,0.1%)
   sys(FT_EFF_JER1up,0.0%)
   sys(FT_EFF_TRK_EFF_LOOSE_PP0,0.2%)
   sys(FT_EFF_TRK_RES_D0_DEAD,0.3%)
   sys(FT_EFF_TRK_RES_Z0_DEAD,0.1%)
   sys(FT_EFF_JET_GroupedNP_21down,0.0%)
   sys(FT_EFF_TRK_BIAS_Z0_WM,0.5%)
   sys(FT_EFF_JET_GroupedNP_31up,0.1%)
   sys(FT_EFF_TRK_EFF_LOOSE_GLOBAL,0.2%)
   sys(FT_EFF_TRK_RES_LOOSE_D0_MEAS,3.9%)
   sys(FT_EFF_TRK_EFF_LOOSE_IBL,0.4%)
   sys(FT_EFF_JET_GroupedNP_11down,0.1%)
   sys(FT_EFF_JET_GroupedNP_21up,0.3%)
   sys(FT_EFF_TRK_EFF_LOOSE_TIDE,0.2%)
   sys(FT_EFF_TRK_RES_LOOSE_Z0_MEAS,4.3%)
   sys(FT_EFF_TRK_FAKE_RATE,2.0%)
   sys(FT_EFF_JET_GroupedNP_11up,0.3%)
   sys(FT_EFF_TRK_EFF_LOOSE_PHYSMODEL,0.4%)
   sys(FT_EFF_JET_GroupedNP_31down,0.2%)
   sys(FT_EFF_TRK_BIAS_D0_WM,0.2%)
   sys(FT_EFF_JET_Angular,1.1%)
} 
bin(300<pt<500,0<abseta<2.5)
{ 
   central_value(1.0,0.0255)
   sys(FT_EFF_TRK_SAGITTA_WM,0.3%)
   sys(FT_EFF_JER1up,0.1%)
   sys(FT_EFF_TRK_EFF_LOOSE_PP0,0.0%)
   sys(FT_EFF_TRK_RES_D0_DEAD,0.3%)
   sys(FT_EFF_TRK_RES_Z0_DEAD,0.4%)
   sys(FT_EFF_JET_GroupedNP_21down,0.1%)
   sys(FT_EFF_TRK_BIAS_Z0_WM,0.5%)
   sys(FT_EFF_JET_GroupedNP_31up,0.2%)
   sys(FT_EFF_TRK_EFF_LOOSE_GLOBAL,0.3%)
   sys(FT_EFF_TRK_RES_LOOSE_D0_MEAS,5.1%)
   sys(FT_EFF_TRK_EFF_LOOSE_IBL,0.3%)
   sys(FT_EFF_JET_GroupedNP_11down,0.1%)
   sys(FT_EFF_JET_GroupedNP_21up,0.2%)
   sys(FT_EFF_TRK_EFF_LOOSE_TIDE,0.3%)
   sys(FT_EFF_TRK_RES_LOOSE_Z0_MEAS,4.4%)
   sys(FT_EFF_TRK_FAKE_RATE,3.9%)
   sys(FT_EFF_JET_GroupedNP_11up,0.2%)
   sys(FT_EFF_TRK_EFF_LOOSE_PHYSMODEL,0.3%)
   sys(FT_EFF_JET_GroupedNP_31down,0.2%)
   sys(FT_EFF_TRK_BIAS_D0_WM,0.2%)
   sys(FT_EFF_JET_Angular,1.2%)
} 
bin(500<pt<800,0<abseta<2.5)
{ 
   central_value(1.0,0.0255)
   sys(FT_EFF_TRK_SAGITTA_WM,1.0%)
   sys(FT_EFF_JER1up,0.2%)
   sys(FT_EFF_TRK_EFF_LOOSE_PP0,0.4%)
   sys(FT_EFF_TRK_RES_D0_DEAD,0.3%)
   sys(FT_EFF_TRK_RES_Z0_DEAD,0.6%)
   sys(FT_EFF_JET_GroupedNP_21down,0.4%)
   sys(FT_EFF_TRK_BIAS_Z0_WM,0.3%)
   sys(FT_EFF_JET_GroupedNP_31up,0.9%)
   sys(FT_EFF_TRK_EFF_LOOSE_GLOBAL,0.2%)
   sys(FT_EFF_TRK_RES_LOOSE_D0_MEAS,5.4%)
   sys(FT_EFF_TRK_EFF_LOOSE_IBL,0.0%)
   sys(FT_EFF_JET_GroupedNP_11down,0.1%)
   sys(FT_EFF_JET_GroupedNP_21up,0.4%)
   sys(FT_EFF_TRK_EFF_LOOSE_TIDE,0.1%)
   sys(FT_EFF_TRK_RES_LOOSE_Z0_MEAS,4.5%)
   sys(FT_EFF_TRK_FAKE_RATE,4.6%)
   sys(FT_EFF_JET_GroupedNP_11up,0.3%)
   sys(FT_EFF_TRK_EFF_LOOSE_PHYSMODEL,0.5%)
   sys(FT_EFF_JET_GroupedNP_31down,0.0%)
   sys(FT_EFF_TRK_BIAS_D0_WM,0.4%)
   sys(FT_EFF_JET_Angular,2.1%)
} 
bin(800<pt<1200,0<abseta<2.5)
{ 
   central_value(1.0,0.0255)
   sys(FT_EFF_TRK_SAGITTA_WM,0.1%)
   sys(FT_EFF_JER1up,0.6%)
   sys(FT_EFF_TRK_EFF_LOOSE_PP0,3.2%)
   sys(FT_EFF_TRK_RES_D0_DEAD,1.2%)
   sys(FT_EFF_TRK_RES_Z0_DEAD,1.0%)
   sys(FT_EFF_JET_GroupedNP_21down,0.4%)
   sys(FT_EFF_TRK_BIAS_Z0_WM,1.7%)
   sys(FT_EFF_JET_GroupedNP_31up,2.4%)
   sys(FT_EFF_TRK_EFF_LOOSE_GLOBAL,1.6%)
   sys(FT_EFF_TRK_RES_LOOSE_D0_MEAS,10.5%)
   sys(FT_EFF_TRK_EFF_LOOSE_IBL,0.9%)
   sys(FT_EFF_JET_GroupedNP_11down,0.7%)
   sys(FT_EFF_JET_GroupedNP_21up,1.1%)
   sys(FT_EFF_TRK_EFF_LOOSE_TIDE,0.9%)
   sys(FT_EFF_TRK_RES_LOOSE_Z0_MEAS,5.6%)
   sys(FT_EFF_TRK_FAKE_RATE,2.1%)
   sys(FT_EFF_JET_GroupedNP_11up,0.6%)
   sys(FT_EFF_TRK_EFF_LOOSE_PHYSMODEL,2.2%)
   sys(FT_EFF_JET_GroupedNP_31down,1.7%)
   sys(FT_EFF_TRK_BIAS_D0_WM,0.9%)
   sys(FT_EFF_JET_Angular,1.9%)
} 
bin(1200<pt<2000,0<abseta<2.5)
{ 
   central_value(1.0,0.0255)
   sys(FT_EFF_TRK_SAGITTA_WM,4.8%)
   sys(FT_EFF_JER1up,9.4%)
   sys(FT_EFF_TRK_EFF_LOOSE_PP0,12.6%)
   sys(FT_EFF_TRK_RES_D0_DEAD,20.2%)
   sys(FT_EFF_TRK_RES_Z0_DEAD,9.9%)
   sys(FT_EFF_JET_GroupedNP_21down,1.2%)
   sys(FT_EFF_TRK_BIAS_Z0_WM,0.3%)
   sys(FT_EFF_JET_GroupedNP_31up,0.0%)
   sys(FT_EFF_TRK_EFF_LOOSE_GLOBAL,8.7%)
   sys(FT_EFF_TRK_RES_LOOSE_D0_MEAS,7.6%)
   sys(FT_EFF_TRK_EFF_LOOSE_IBL,10.2%)
   sys(FT_EFF_JET_GroupedNP_11down,3.8%)
   sys(FT_EFF_JET_GroupedNP_21up,0.5%)
   sys(FT_EFF_TRK_EFF_LOOSE_TIDE,10.2%)
   sys(FT_EFF_TRK_RES_LOOSE_Z0_MEAS,10.4%)
   sys(FT_EFF_TRK_FAKE_RATE,27.9%)
   sys(FT_EFF_JET_GroupedNP_11up,9.6%)
   sys(FT_EFF_TRK_EFF_LOOSE_PHYSMODEL,1.3%)
   sys(FT_EFF_JET_GroupedNP_31down,0.2%)
   sys(FT_EFF_TRK_BIAS_D0_WM,9.8%)
   sys(FT_EFF_JET_Angular,6.9%)
} 
} 
 
